%!PS-Adobe-3.0 EPSF-3.0
%%Creator: (MATLAB, The Mathworks, Inc. Version 9.2.0.538062 \(R2017a\). Operating System: Linux)
%%Title: (/afs/kth.se/home/i/z/izzo/Documents/Approximation Theory/Project/gitshared/project/asympt1.eps)
%%CreationDate: 2017-10-23T15:06:23
%%Pages: (atend)
%%BoundingBox: 0 0 624 466
%%LanguageLevel: 3
%%EndComments
%%BeginProlog
%%BeginResource: procset (Apache XML Graphics Std ProcSet) 1.2 0
%%Version: 1.2 0
%%Copyright: (Copyright 2001-2003,2010 The Apache Software Foundation. License terms: http://www.apache.org/licenses/LICENSE-2.0)
/bd{bind def}bind def
/ld{load def}bd
/GR/grestore ld
/M/moveto ld
/LJ/setlinejoin ld
/C/curveto ld
/f/fill ld
/LW/setlinewidth ld
/GC/setgray ld
/t/show ld
/N/newpath ld
/CT/concat ld
/cp/closepath ld
/S/stroke ld
/L/lineto ld
/CC/setcmykcolor ld
/A/ashow ld
/GS/gsave ld
/RC/setrgbcolor ld
/RM/rmoveto ld
/ML/setmiterlimit ld
/re {4 2 roll M
1 index 0 rlineto
0 exch rlineto
neg 0 rlineto
cp } bd
/_ctm matrix def
/_tm matrix def
/BT { _ctm currentmatrix pop matrix _tm copy pop 0 0 moveto } bd
/ET { _ctm setmatrix } bd
/iTm { _ctm setmatrix _tm concat } bd
/Tm { _tm astore pop iTm 0 0 moveto } bd
/ux 0.0 def
/uy 0.0 def
/F {
  /Tp exch def
  /Tf exch def
  Tf findfont Tp scalefont setfont
  /cf Tf def  /cs Tp def
} bd
/ULS {currentpoint /uy exch def /ux exch def} bd
/ULE {
  /Tcx currentpoint pop def
  gsave
  newpath
  cf findfont cs scalefont dup
  /FontMatrix get 0 get /Ts exch def /FontInfo get dup
  /UnderlinePosition get Ts mul /To exch def
  /UnderlineThickness get Ts mul /Tt exch def
  ux uy To add moveto  Tcx uy To add lineto
  Tt setlinewidth stroke
  grestore
} bd
/OLE {
  /Tcx currentpoint pop def
  gsave
  newpath
  cf findfont cs scalefont dup
  /FontMatrix get 0 get /Ts exch def /FontInfo get dup
  /UnderlinePosition get Ts mul /To exch def
  /UnderlineThickness get Ts mul /Tt exch def
  ux uy To add cs add moveto Tcx uy To add cs add lineto
  Tt setlinewidth stroke
  grestore
} bd
/SOE {
  /Tcx currentpoint pop def
  gsave
  newpath
  cf findfont cs scalefont dup
  /FontMatrix get 0 get /Ts exch def /FontInfo get dup
  /UnderlinePosition get Ts mul /To exch def
  /UnderlineThickness get Ts mul /Tt exch def
  ux uy To add cs 10 mul 26 idiv add moveto Tcx uy To add cs 10 mul 26 idiv add lineto
  Tt setlinewidth stroke
  grestore
} bd
/QT {
/Y22 exch store
/X22 exch store
/Y21 exch store
/X21 exch store
currentpoint
/Y21 load 2 mul add 3 div exch
/X21 load 2 mul add 3 div exch
/X21 load 2 mul /X22 load add 3 div
/Y21 load 2 mul /Y22 load add 3 div
/X22 load /Y22 load curveto
} bd
/SSPD {
dup length /d exch dict def
{
/v exch def
/k exch def
currentpagedevice k known {
/cpdv currentpagedevice k get def
v cpdv ne {
/upd false def
/nullv v type /nulltype eq def
/nullcpdv cpdv type /nulltype eq def
nullv nullcpdv or
{
/upd true def
} {
/sametype v type cpdv type eq def
sametype {
v type /arraytype eq {
/vlen v length def
/cpdvlen cpdv length def
vlen cpdvlen eq {
0 1 vlen 1 sub {
/i exch def
/obj v i get def
/cpdobj cpdv i get def
obj cpdobj ne {
/upd true def
exit
} if
} for
} {
/upd true def
} ifelse
} {
v type /dicttype eq {
v {
/dv exch def
/dk exch def
/cpddv cpdv dk get def
dv cpddv ne {
/upd true def
exit
} if
} forall
} {
/upd true def
} ifelse
} ifelse
} if
} ifelse
upd true eq {
d k v put
} if
} if
} if
} forall
d length 0 gt {
d setpagedevice
} if
} bd
/RE { % /NewFontName [NewEncodingArray] /FontName RE -
  findfont dup length dict begin
  {
    1 index /FID ne
    {def} {pop pop} ifelse
  } forall
  /Encoding exch def
  /FontName 1 index def
  currentdict definefont pop
  end
} bind def
%%EndResource
%%BeginResource: procset (Apache XML Graphics EPS ProcSet) 1.0 0
%%Version: 1.0 0
%%Copyright: (Copyright 2002-2003 The Apache Software Foundation. License terms: http://www.apache.org/licenses/LICENSE-2.0)
/BeginEPSF { %def
/b4_Inc_state save def         % Save state for cleanup
/dict_count countdictstack def % Count objects on dict stack
/op_count count 1 sub def      % Count objects on operand stack
userdict begin                 % Push userdict on dict stack
/showpage { } def              % Redefine showpage, { } = null proc
0 setgray 0 setlinecap         % Prepare graphics state
1 setlinewidth 0 setlinejoin
10 setmiterlimit [ ] 0 setdash newpath
/languagelevel where           % If level not equal to 1 then
{pop languagelevel             % set strokeadjust and
1 ne                           % overprint to their defaults.
{false setstrokeadjust false setoverprint
} if
} if
} bd
/EndEPSF { %def
count op_count sub {pop} repeat            % Clean up stacks
countdictstack dict_count sub {end} repeat
b4_Inc_state restore
} bd
%%EndResource
%FOPBeginFontDict
%%IncludeResource: font Courier-Bold
%%IncludeResource: font Helvetica
%%IncludeResource: font Courier-BoldOblique
%%IncludeResource: font Courier-Oblique
%%IncludeResource: font Times-Roman
%%IncludeResource: font Helvetica-BoldOblique
%%IncludeResource: font Helvetica-Bold
%%IncludeResource: font Helvetica-Oblique
%%IncludeResource: font Times-BoldItalic
%%IncludeResource: font Courier
%%IncludeResource: font Times-Italic
%%IncludeResource: font Times-Bold
%%IncludeResource: font Symbol
%%IncludeResource: font ZapfDingbats
%FOPEndFontDict
%%BeginResource: encoding WinAnsiEncoding
/WinAnsiEncoding [
/.notdef /.notdef /.notdef /.notdef /.notdef
/.notdef /.notdef /.notdef /.notdef /.notdef
/.notdef /.notdef /.notdef /.notdef /.notdef
/.notdef /.notdef /.notdef /.notdef /.notdef
/.notdef /.notdef /.notdef /.notdef /.notdef
/.notdef /.notdef /.notdef /.notdef /.notdef
/.notdef /.notdef /space /exclam /quotedbl
/numbersign /dollar /percent /ampersand /quotesingle
/parenleft /parenright /asterisk /plus /comma
/hyphen /period /slash /zero /one
/two /three /four /five /six
/seven /eight /nine /colon /semicolon
/less /equal /greater /question /at
/A /B /C /D /E
/F /G /H /I /J
/K /L /M /N /O
/P /Q /R /S /T
/U /V /W /X /Y
/Z /bracketleft /backslash /bracketright /asciicircum
/underscore /quoteleft /a /b /c
/d /e /f /g /h
/i /j /k /l /m
/n /o /p /q /r
/s /t /u /v /w
/x /y /z /braceleft /bar
/braceright /asciitilde /bullet /Euro /bullet
/quotesinglbase /florin /quotedblbase /ellipsis /dagger
/daggerdbl /circumflex /perthousand /Scaron /guilsinglleft
/OE /bullet /Zcaron /bullet /bullet
/quoteleft /quoteright /quotedblleft /quotedblright /bullet
/endash /emdash /asciitilde /trademark /scaron
/guilsinglright /oe /bullet /zcaron /Ydieresis
/space /exclamdown /cent /sterling /currency
/yen /brokenbar /section /dieresis /copyright
/ordfeminine /guillemotleft /logicalnot /sfthyphen /registered
/macron /degree /plusminus /twosuperior /threesuperior
/acute /mu /paragraph /middot /cedilla
/onesuperior /ordmasculine /guillemotright /onequarter /onehalf
/threequarters /questiondown /Agrave /Aacute /Acircumflex
/Atilde /Adieresis /Aring /AE /Ccedilla
/Egrave /Eacute /Ecircumflex /Edieresis /Igrave
/Iacute /Icircumflex /Idieresis /Eth /Ntilde
/Ograve /Oacute /Ocircumflex /Otilde /Odieresis
/multiply /Oslash /Ugrave /Uacute /Ucircumflex
/Udieresis /Yacute /Thorn /germandbls /agrave
/aacute /acircumflex /atilde /adieresis /aring
/ae /ccedilla /egrave /eacute /ecircumflex
/edieresis /igrave /iacute /icircumflex /idieresis
/eth /ntilde /ograve /oacute /ocircumflex
/otilde /odieresis /divide /oslash /ugrave
/uacute /ucircumflex /udieresis /yacute /thorn
/ydieresis
] def
%%EndResource
%FOPBeginFontReencode
/Courier-Bold findfont
dup length dict begin
  {1 index /FID ne {def} {pop pop} ifelse} forall
  /Encoding WinAnsiEncoding def
  currentdict
end
/Courier-Bold exch definefont pop
/Helvetica findfont
dup length dict begin
  {1 index /FID ne {def} {pop pop} ifelse} forall
  /Encoding WinAnsiEncoding def
  currentdict
end
/Helvetica exch definefont pop
/Courier-BoldOblique findfont
dup length dict begin
  {1 index /FID ne {def} {pop pop} ifelse} forall
  /Encoding WinAnsiEncoding def
  currentdict
end
/Courier-BoldOblique exch definefont pop
/Courier-Oblique findfont
dup length dict begin
  {1 index /FID ne {def} {pop pop} ifelse} forall
  /Encoding WinAnsiEncoding def
  currentdict
end
/Courier-Oblique exch definefont pop
/Times-Roman findfont
dup length dict begin
  {1 index /FID ne {def} {pop pop} ifelse} forall
  /Encoding WinAnsiEncoding def
  currentdict
end
/Times-Roman exch definefont pop
/Helvetica-BoldOblique findfont
dup length dict begin
  {1 index /FID ne {def} {pop pop} ifelse} forall
  /Encoding WinAnsiEncoding def
  currentdict
end
/Helvetica-BoldOblique exch definefont pop
/Helvetica-Bold findfont
dup length dict begin
  {1 index /FID ne {def} {pop pop} ifelse} forall
  /Encoding WinAnsiEncoding def
  currentdict
end
/Helvetica-Bold exch definefont pop
/Helvetica-Oblique findfont
dup length dict begin
  {1 index /FID ne {def} {pop pop} ifelse} forall
  /Encoding WinAnsiEncoding def
  currentdict
end
/Helvetica-Oblique exch definefont pop
/Times-BoldItalic findfont
dup length dict begin
  {1 index /FID ne {def} {pop pop} ifelse} forall
  /Encoding WinAnsiEncoding def
  currentdict
end
/Times-BoldItalic exch definefont pop
/Courier findfont
dup length dict begin
  {1 index /FID ne {def} {pop pop} ifelse} forall
  /Encoding WinAnsiEncoding def
  currentdict
end
/Courier exch definefont pop
/Times-Italic findfont
dup length dict begin
  {1 index /FID ne {def} {pop pop} ifelse} forall
  /Encoding WinAnsiEncoding def
  currentdict
end
/Times-Italic exch definefont pop
/Times-Bold findfont
dup length dict begin
  {1 index /FID ne {def} {pop pop} ifelse} forall
  /Encoding WinAnsiEncoding def
  currentdict
end
/Times-Bold exch definefont pop
%FOPEndFontReencode
%%EndProlog
%%Page: 1 1
%%PageBoundingBox: 0 0 624 466
%%BeginPageSetup
[1 0 0 -1 0 466] CT
%%EndPageSetup
GS
[0.75789 0 0 0.75789 0 -0.10529] CT
1 GC
N
0 0 823 615 re
f
GR
GS
[0.75789 0 0 0.75789 0 -0.10529] CT
1 GC
N
0 0 823 615 re
f
GR
GS
[0.75789 0 0 0.75789 0 -0.10529] CT
1 GC
N
107 547 M
745 547 L
745 46 L
107 46 L
cp
f
GR
GS
[0.75789 0 0 0.75789 0 -0.10529] CT
0.149 GC
2 setlinecap
1 LJ
0.66 LW
N
107 547 M
745 547 L
S
GR
GS
[0.75789 0 0 0.75789 0 -0.10529] CT
0.149 GC
2 setlinecap
1 LJ
0.66 LW
N
107 46 M
745 46 L
S
GR
GS
[0.75789 0 0 0.75789 0 -0.10529] CT
0.149 GC
2 setlinecap
1 LJ
0.66 LW
N
107 547 M
107 540.62 L
S
GR
GS
[0.75789 0 0 0.75789 0 -0.10529] CT
0.149 GC
2 setlinecap
1 LJ
0.66 LW
N
234.092 547 M
234.092 540.62 L
S
GR
GS
[0.75789 0 0 0.75789 0 -0.10529] CT
0.149 GC
2 setlinecap
1 LJ
0.66 LW
N
361.183 547 M
361.183 540.62 L
S
GR
GS
[0.75789 0 0 0.75789 0 -0.10529] CT
0.149 GC
2 setlinecap
1 LJ
0.66 LW
N
488.275 547 M
488.275 540.62 L
S
GR
GS
[0.75789 0 0 0.75789 0 -0.10529] CT
0.149 GC
2 setlinecap
1 LJ
0.66 LW
N
615.367 547 M
615.367 540.62 L
S
GR
GS
[0.75789 0 0 0.75789 0 -0.10529] CT
0.149 GC
2 setlinecap
1 LJ
0.66 LW
N
742.458 547 M
742.458 540.62 L
S
GR
GS
[0.75789 0 0 0.75789 0 -0.10529] CT
0.149 GC
2 setlinecap
1 LJ
0.66 LW
N
107 46 M
107 52.38 L
S
GR
GS
[0.75789 0 0 0.75789 0 -0.10529] CT
0.149 GC
2 setlinecap
1 LJ
0.66 LW
N
234.092 46 M
234.092 52.38 L
S
GR
GS
[0.75789 0 0 0.75789 0 -0.10529] CT
0.149 GC
2 setlinecap
1 LJ
0.66 LW
N
361.183 46 M
361.183 52.38 L
S
GR
GS
[0.75789 0 0 0.75789 0 -0.10529] CT
0.149 GC
2 setlinecap
1 LJ
0.66 LW
N
488.275 46 M
488.275 52.38 L
S
GR
GS
[0.75789 0 0 0.75789 0 -0.10529] CT
0.149 GC
2 setlinecap
1 LJ
0.66 LW
N
615.367 46 M
615.367 52.38 L
S
GR
GS
[0.75789 0 0 0.75789 0 -0.10529] CT
0.149 GC
2 setlinecap
1 LJ
0.66 LW
N
742.458 46 M
742.458 52.38 L
S
GR
GS
[0.75789 0 0 0.75789 81.09473 418.46315] CT
0.149 GC
/Helvetica 13.194 F
GS
[1 0 0 1 0 0] CT
-4.5 13 moveto 
1 -1 scale
(0) t 
GR
GR
GS
[0.75789 0 0 0.75789 177.41681 418.46315] CT
0.149 GC
/Helvetica 13.194 F
GS
[1 0 0 1 0 0] CT
-8.5 13 moveto 
1 -1 scale
(50) t 
GR
GR
GS
[0.75789 0 0 0.75789 273.73889 418.46315] CT
0.149 GC
/Helvetica 13.194 F
GS
[1 0 0 1 0 0] CT
-12.5 13 moveto 
1 -1 scale
(100) t 
GR
GR
GS
[0.75789 0 0 0.75789 370.06095 418.46315] CT
0.149 GC
/Helvetica 13.194 F
GS
[1 0 0 1 0 0] CT
-12.5 13 moveto 
1 -1 scale
(150) t 
GR
GR
GS
[0.75789 0 0 0.75789 466.38305 418.46315] CT
0.149 GC
/Helvetica 13.194 F
GS
[1 0 0 1 0 0] CT
-12.5 13 moveto 
1 -1 scale
(200) t 
GR
GR
GS
[0.75789 0 0 0.75789 562.70511 418.46315] CT
0.149 GC
/Helvetica 13.194 F
GS
[1 0 0 1 0 0] CT
-12.5 13 moveto 
1 -1 scale
(250) t 
GR
GR
GS
[0.75789 0 0 0.75789 322.86336 432.34737] CT
0.149 GC
/Helvetica 14.514 F
GS
[1 0 0 1 0 0] CT
-72 14 moveto 
1 -1 scale
(omega [frequency]) t 
GR
GR
GS
[0.75789 0 0 0.75789 0 -0.10529] CT
0.149 GC
2 setlinecap
1 LJ
0.66 LW
N
107 547 M
107 46 L
S
GR
GS
[0.75789 0 0 0.75789 0 -0.10529] CT
0.149 GC
2 setlinecap
1 LJ
0.66 LW
N
745 547 M
745 46 L
S
GR
GS
[0.75789 0 0 0.75789 0 -0.10529] CT
0.149 GC
2 setlinecap
1 LJ
0.66 LW
N
107 547 M
113.38 547 L
S
GR
GS
[0.75789 0 0 0.75789 0 -0.10529] CT
0.149 GC
2 setlinecap
1 LJ
0.66 LW
N
107 421.75 M
113.38 421.75 L
S
GR
GS
[0.75789 0 0 0.75789 0 -0.10529] CT
0.149 GC
2 setlinecap
1 LJ
0.66 LW
N
107 296.5 M
113.38 296.5 L
S
GR
GS
[0.75789 0 0 0.75789 0 -0.10529] CT
0.149 GC
2 setlinecap
1 LJ
0.66 LW
N
107 171.25 M
113.38 171.25 L
S
GR
GS
[0.75789 0 0 0.75789 0 -0.10529] CT
0.149 GC
2 setlinecap
1 LJ
0.66 LW
N
107 46 M
113.38 46 L
S
GR
GS
[0.75789 0 0 0.75789 0 -0.10529] CT
0.149 GC
2 setlinecap
1 LJ
0.66 LW
N
745 547 M
738.62 547 L
S
GR
GS
[0.75789 0 0 0.75789 0 -0.10529] CT
0.149 GC
2 setlinecap
1 LJ
0.66 LW
N
745 421.75 M
738.62 421.75 L
S
GR
GS
[0.75789 0 0 0.75789 0 -0.10529] CT
0.149 GC
2 setlinecap
1 LJ
0.66 LW
N
745 296.5 M
738.62 296.5 L
S
GR
GS
[0.75789 0 0 0.75789 0 -0.10529] CT
0.149 GC
2 setlinecap
1 LJ
0.66 LW
N
745 171.25 M
738.62 171.25 L
S
GR
GS
[0.75789 0 0 0.75789 0 -0.10529] CT
0.149 GC
2 setlinecap
1 LJ
0.66 LW
N
745 46 M
738.62 46 L
S
GR
GS
[0.75789 0 0 0.75789 0 -0.10529] CT
0.149 GC
2 setlinecap
1 LJ
0.66 LW
N
107 547 M
110.19 547 L
S
GR
GS
[0.75789 0 0 0.75789 0 -0.10529] CT
0.149 GC
2 setlinecap
1 LJ
0.66 LW
N
107 521.95 M
110.19 521.95 L
S
GR
GS
[0.75789 0 0 0.75789 0 -0.10529] CT
0.149 GC
2 setlinecap
1 LJ
0.66 LW
N
107 496.9 M
110.19 496.9 L
S
GR
GS
[0.75789 0 0 0.75789 0 -0.10529] CT
0.149 GC
2 setlinecap
1 LJ
0.66 LW
N
107 471.85 M
110.19 471.85 L
S
GR
GS
[0.75789 0 0 0.75789 0 -0.10529] CT
0.149 GC
2 setlinecap
1 LJ
0.66 LW
N
107 446.8 M
110.19 446.8 L
S
GR
GS
[0.75789 0 0 0.75789 0 -0.10529] CT
0.149 GC
2 setlinecap
1 LJ
0.66 LW
N
107 421.75 M
110.19 421.75 L
S
GR
GS
[0.75789 0 0 0.75789 0 -0.10529] CT
0.149 GC
2 setlinecap
1 LJ
0.66 LW
N
107 396.7 M
110.19 396.7 L
S
GR
GS
[0.75789 0 0 0.75789 0 -0.10529] CT
0.149 GC
2 setlinecap
1 LJ
0.66 LW
N
107 371.65 M
110.19 371.65 L
S
GR
GS
[0.75789 0 0 0.75789 0 -0.10529] CT
0.149 GC
2 setlinecap
1 LJ
0.66 LW
N
107 346.6 M
110.19 346.6 L
S
GR
GS
[0.75789 0 0 0.75789 0 -0.10529] CT
0.149 GC
2 setlinecap
1 LJ
0.66 LW
N
107 321.55 M
110.19 321.55 L
S
GR
GS
[0.75789 0 0 0.75789 0 -0.10529] CT
0.149 GC
2 setlinecap
1 LJ
0.66 LW
N
107 296.5 M
110.19 296.5 L
S
GR
GS
[0.75789 0 0 0.75789 0 -0.10529] CT
0.149 GC
2 setlinecap
1 LJ
0.66 LW
N
107 271.45 M
110.19 271.45 L
S
GR
GS
[0.75789 0 0 0.75789 0 -0.10529] CT
0.149 GC
2 setlinecap
1 LJ
0.66 LW
N
107 246.4 M
110.19 246.4 L
S
GR
GS
[0.75789 0 0 0.75789 0 -0.10529] CT
0.149 GC
2 setlinecap
1 LJ
0.66 LW
N
107 221.35 M
110.19 221.35 L
S
GR
GS
[0.75789 0 0 0.75789 0 -0.10529] CT
0.149 GC
2 setlinecap
1 LJ
0.66 LW
N
107 196.3 M
110.19 196.3 L
S
GR
GS
[0.75789 0 0 0.75789 0 -0.10529] CT
0.149 GC
2 setlinecap
1 LJ
0.66 LW
N
107 171.25 M
110.19 171.25 L
S
GR
GS
[0.75789 0 0 0.75789 0 -0.10529] CT
0.149 GC
2 setlinecap
1 LJ
0.66 LW
N
107 146.2 M
110.19 146.2 L
S
GR
GS
[0.75789 0 0 0.75789 0 -0.10529] CT
0.149 GC
2 setlinecap
1 LJ
0.66 LW
N
107 121.15 M
110.19 121.15 L
S
GR
GS
[0.75789 0 0 0.75789 0 -0.10529] CT
0.149 GC
2 setlinecap
1 LJ
0.66 LW
N
107 96.1 M
110.19 96.1 L
S
GR
GS
[0.75789 0 0 0.75789 0 -0.10529] CT
0.149 GC
2 setlinecap
1 LJ
0.66 LW
N
107 71.05 M
110.19 71.05 L
S
GR
GS
[0.75789 0 0 0.75789 0 -0.10529] CT
0.149 GC
2 setlinecap
1 LJ
0.66 LW
N
107 46 M
110.19 46 L
S
GR
GS
[0.75789 0 0 0.75789 0 -0.10529] CT
0.149 GC
2 setlinecap
1 LJ
0.66 LW
N
745 547 M
741.81 547 L
S
GR
GS
[0.75789 0 0 0.75789 0 -0.10529] CT
0.149 GC
2 setlinecap
1 LJ
0.66 LW
N
745 521.95 M
741.81 521.95 L
S
GR
GS
[0.75789 0 0 0.75789 0 -0.10529] CT
0.149 GC
2 setlinecap
1 LJ
0.66 LW
N
745 496.9 M
741.81 496.9 L
S
GR
GS
[0.75789 0 0 0.75789 0 -0.10529] CT
0.149 GC
2 setlinecap
1 LJ
0.66 LW
N
745 471.85 M
741.81 471.85 L
S
GR
GS
[0.75789 0 0 0.75789 0 -0.10529] CT
0.149 GC
2 setlinecap
1 LJ
0.66 LW
N
745 446.8 M
741.81 446.8 L
S
GR
GS
[0.75789 0 0 0.75789 0 -0.10529] CT
0.149 GC
2 setlinecap
1 LJ
0.66 LW
N
745 421.75 M
741.81 421.75 L
S
GR
GS
[0.75789 0 0 0.75789 0 -0.10529] CT
0.149 GC
2 setlinecap
1 LJ
0.66 LW
N
745 396.7 M
741.81 396.7 L
S
GR
GS
[0.75789 0 0 0.75789 0 -0.10529] CT
0.149 GC
2 setlinecap
1 LJ
0.66 LW
N
745 371.65 M
741.81 371.65 L
S
GR
GS
[0.75789 0 0 0.75789 0 -0.10529] CT
0.149 GC
2 setlinecap
1 LJ
0.66 LW
N
745 346.6 M
741.81 346.6 L
S
GR
GS
[0.75789 0 0 0.75789 0 -0.10529] CT
0.149 GC
2 setlinecap
1 LJ
0.66 LW
N
745 321.55 M
741.81 321.55 L
S
GR
GS
[0.75789 0 0 0.75789 0 -0.10529] CT
0.149 GC
2 setlinecap
1 LJ
0.66 LW
N
745 296.5 M
741.81 296.5 L
S
GR
GS
[0.75789 0 0 0.75789 0 -0.10529] CT
0.149 GC
2 setlinecap
1 LJ
0.66 LW
N
745 271.45 M
741.81 271.45 L
S
GR
GS
[0.75789 0 0 0.75789 0 -0.10529] CT
0.149 GC
2 setlinecap
1 LJ
0.66 LW
N
745 246.4 M
741.81 246.4 L
S
GR
GS
[0.75789 0 0 0.75789 0 -0.10529] CT
0.149 GC
2 setlinecap
1 LJ
0.66 LW
N
745 221.35 M
741.81 221.35 L
S
GR
GS
[0.75789 0 0 0.75789 0 -0.10529] CT
0.149 GC
2 setlinecap
1 LJ
0.66 LW
N
745 196.3 M
741.81 196.3 L
S
GR
GS
[0.75789 0 0 0.75789 0 -0.10529] CT
0.149 GC
2 setlinecap
1 LJ
0.66 LW
N
745 171.25 M
741.81 171.25 L
S
GR
GS
[0.75789 0 0 0.75789 0 -0.10529] CT
0.149 GC
2 setlinecap
1 LJ
0.66 LW
N
745 146.2 M
741.81 146.2 L
S
GR
GS
[0.75789 0 0 0.75789 0 -0.10529] CT
0.149 GC
2 setlinecap
1 LJ
0.66 LW
N
745 121.15 M
741.81 121.15 L
S
GR
GS
[0.75789 0 0 0.75789 0 -0.10529] CT
0.149 GC
2 setlinecap
1 LJ
0.66 LW
N
745 96.1 M
741.81 96.1 L
S
GR
GS
[0.75789 0 0 0.75789 0 -0.10529] CT
0.149 GC
2 setlinecap
1 LJ
0.66 LW
N
745 71.05 M
741.81 71.05 L
S
GR
GS
[0.75789 0 0 0.75789 0 -0.10529] CT
0.149 GC
2 setlinecap
1 LJ
0.66 LW
N
745 46 M
741.81 46 L
S
GR
GS
[0.75789 0 0 0.75789 50.77894 419.76842] CT
0.149 GC
/Helvetica 13.194 F
GS
[1 0 0 1 0 0] CT
0 0 moveto 
1 -1 scale
(10) t 
GR
GR
GS
[0.75789 0 0 0.75789 63.66315 415.22105] CT
0.149 GC
/Helvetica 10.556 F
GS
[1 0 0 1 0 0] CT
0 0 moveto 
1 -1 scale
(-15) t 
GR
GR
GS
[0.75789 0 0 0.75789 50.77894 325.03157] CT
0.149 GC
/Helvetica 13.194 F
GS
[1 0 0 1 0 0] CT
0 0 moveto 
1 -1 scale
(10) t 
GR
GR
GS
[0.75789 0 0 0.75789 63.66315 320.4842] CT
0.149 GC
/Helvetica 10.556 F
GS
[1 0 0 1 0 0] CT
0 0 moveto 
1 -1 scale
(-10) t 
GR
GR
GS
[0.75789 0 0 0.75789 56.08421 230.29473] CT
0.149 GC
/Helvetica 13.194 F
GS
[1 0 0 1 0 0] CT
0 0 moveto 
1 -1 scale
(10) t 
GR
GR
GS
[0.75789 0 0 0.75789 68.96842 225.74736] CT
0.149 GC
/Helvetica 10.556 F
GS
[1 0 0 1 0 0] CT
0 0 moveto 
1 -1 scale
(-5) t 
GR
GR
GS
[0.75789 0 0 0.75789 59.11578 134.79998] CT
0.149 GC
/Helvetica 13.194 F
GS
[1 0 0 1 0 0] CT
0 0 moveto 
1 -1 scale
(10) t 
GR
GR
GS
[0.75789 0 0 0.75789 71.99999 130.25262] CT
0.149 GC
/Helvetica 10.556 F
GS
[1 0 0 1 0 0] CT
0 0 moveto 
1 -1 scale
(0) t 
GR
GR
GS
[0.75789 0 0 0.75789 59.11578 40.06314] CT
0.149 GC
/Helvetica 13.194 F
GS
[1 0 0 1 0 0] CT
0 0 moveto 
1 -1 scale
(10) t 
GR
GR
GS
[0.75789 0 0 0.75789 71.99999 35.51577] CT
0.149 GC
/Helvetica 10.556 F
GS
[1 0 0 1 0 0] CT
0 0 moveto 
1 -1 scale
(5) t 
GR
GR
GS
[0 -0.75789 0.75789 0 47.56842 224.61033] CT
0.149 GC
/Helvetica 14.514 F
GS
[1 0 0 1 0 0] CT
-77 -4 moveto 
1 -1 scale
(order of the residual) t 
GR
GR
GS
[0.75789 0 0 0.75789 322.86345 32.67367] CT
/Helvetica-Bold 14.514 F
GS
[1 0 0 1 0 0] CT
-156 -4 moveto 
1 -1 scale
(Error from the asymptotic expansion) t 
GR
GR
GS
[0.75789 0 0 0.75789 0 -0.10529] CT
0 0.447 0.741 RC
1 LJ
0.66 LW
N
109.542 196.3 M
122.251 235.285 L
134.96 248.474 L
147.669 256.626 L
160.378 262.543 L
173.088 267.19 L
185.797 271.017 L
198.506 274.271 L
211.215 277.1 L
223.924 279.604 L
236.633 281.849 L
249.343 283.884 L
262.052 285.745 L
274.761 287.459 L
287.47 289.048 L
300.179 290.529 L
312.888 291.915 L
325.598 293.218 L
338.307 294.448 L
351.016 295.612 L
363.725 296.716 L
376.434 297.768 L
389.143 298.771 L
401.853 299.729 L
414.562 300.648 L
427.271 301.529 L
439.98 302.375 L
452.689 303.19 L
465.398 303.976 L
478.108 304.734 L
490.817 305.467 L
503.526 306.176 L
516.235 306.862 L
528.944 307.527 L
541.653 308.173 L
554.363 308.8 L
567.072 309.41 L
579.781 310.003 L
592.49 310.58 L
605.199 311.142 L
617.908 311.69 L
630.618 312.225 L
643.327 312.747 L
656.036 313.256 L
668.745 313.754 L
681.454 314.241 L
694.163 314.717 L
706.872 315.183 L
719.582 315.639 L
732.291 316.086 L
745 316.524 L
S
GR
GS
[0.75789 0 0 0.75789 0 -0.10529] CT
0.851 0.325 0.098 RC
[10 6] 0 setdash
2 LJ
0.66 LW
N
109.542 146.2 M
122.251 224.171 L
134.96 250.548 L
147.669 266.853 L
160.378 278.686 L
173.088 287.98 L
185.797 295.634 L
198.506 302.142 L
211.215 307.801 L
223.924 312.808 L
236.633 317.299 L
249.343 321.368 L
262.052 325.09 L
274.761 328.518 L
287.47 331.696 L
300.179 334.658 L
312.888 337.43 L
325.598 340.037 L
338.307 342.496 L
351.016 344.824 L
363.725 347.033 L
376.434 349.136 L
389.143 351.141 L
401.853 353.059 L
414.562 354.895 L
427.271 356.657 L
439.98 358.351 L
452.689 359.981 L
465.398 361.552 L
478.108 363.068 L
490.817 364.533 L
503.526 365.951 L
516.235 367.324 L
528.944 368.655 L
541.653 369.946 L
554.363 371.2 L
567.072 372.419 L
579.781 373.605 L
592.49 374.76 L
605.199 375.884 L
617.908 376.98 L
630.618 378.049 L
643.327 379.093 L
656.036 380.112 L
668.745 381.108 L
681.454 382.082 L
694.163 383.034 L
706.872 383.966 L
719.582 384.878 L
732.291 385.772 L
745 386.647 L
S
GR
GS
[0.75789 0 0 0.75789 0 -0.10529] CT
0.929 0.694 0.125 RC
[8 3 2 3] 0 setdash
2 LJ
0.66 LW
N
109.542 121.15 M
122.251 218.613 L
134.96 251.584 L
147.669 271.966 L
160.378 286.758 L
173.088 298.375 L
185.797 307.943 L
198.506 316.077 L
211.215 323.151 L
223.924 329.41 L
236.633 335.023 L
249.343 340.111 L
262.052 344.763 L
274.761 349.048 L
287.47 353.02 L
300.179 356.722 L
312.888 360.188 L
325.598 363.446 L
338.307 366.52 L
351.016 369.429 L
363.725 372.191 L
376.434 374.82 L
389.143 377.327 L
401.853 379.723 L
414.562 382.019 L
427.271 384.221 L
439.98 386.338 L
452.689 388.376 L
465.398 390.34 L
478.108 392.235 L
490.817 394.067 L
503.526 395.839 L
516.235 397.555 L
528.944 399.219 L
541.653 400.833 L
554.363 402.4 L
567.072 403.924 L
579.781 405.406 L
592.49 406.849 L
605.199 408.255 L
617.908 409.625 L
630.618 410.962 L
643.327 412.266 L
656.036 413.54 L
668.745 414.785 L
681.454 416.002 L
694.163 417.192 L
706.872 418.357 L
719.582 419.498 L
732.291 420.615 L
745 421.709 L
S
GR
GS
[0.75789 0 0 0.75789 0 -0.10529] CT
0.494 0.184 0.557 RC
1 LJ
0.66 LW
N
109.542 71.05 M
122.251 207.499 L
134.96 253.658 L
147.669 282.192 L
160.378 302.901 L
173.088 319.166 L
185.797 332.56 L
198.506 343.948 L
211.215 353.852 L
223.924 362.615 L
236.633 370.472 L
249.343 377.595 L
262.052 384.108 L
274.761 390.107 L
287.47 395.668 L
300.179 400.851 L
312.888 405.703 L
325.598 410.264 L
338.307 414.568 L
351.016 418.641 L
363.725 422.508 L
376.434 426.187 L
389.143 429.697 L
401.853 433.053 L
414.562 436.266 L
427.271 439.35 L
439.98 442.314 L
452.689 445.166 L
465.398 447.916 L
478.108 450.569 L
490.817 453.134 L
503.526 455.614 L
516.235 458.017 L
528.944 460.346 L
541.653 462.606 L
554.363 464.801 L
567.072 466.934 L
579.781 469.009 L
592.49 471.029 L
605.199 472.997 L
617.908 474.915 L
630.618 476.787 L
643.327 478.613 L
656.036 480.396 L
668.745 482.139 L
681.454 483.843 L
694.163 485.509 L
706.872 487.14 L
719.582 488.737 L
732.291 490.3 L
745 491.833 L
S
GR
GS
[0.75789 0 0 0.75789 0 -0.10529] CT
1 GC
N
657 125 M
657 59 L
732 59 L
732 125 L
cp
f
GR
GS
[0.75789 0 0 0.75789 533.43929 51.86547] CT
/Helvetica 11.875 F
GS
[1 0 0 1 0 0] CT
0 4.5 moveto 
1 -1 scale
(s=1) t 
GR
GR
GS
[0.75789 0 0 0.75789 0 -0.10529] CT
0 0.447 0.741 RC
1 LJ
0.66 LW
N
661.022 68.573 M
700.827 68.573 L
S
GR
GS
[0.75789 0 0 0.75789 533.43929 63.70251] CT
/Helvetica 11.875 F
GS
[1 0 0 1 0 0] CT
0 4.5 moveto 
1 -1 scale
(s=3) t 
GR
GR
GS
[0.75789 0 0 0.75789 0 -0.10529] CT
0.851 0.325 0.098 RC
[10 6] 0 setdash
2 LJ
0.66 LW
N
661.022 84.191 M
700.827 84.191 L
S
GR
GS
[0.75789 0 0 0.75789 533.43929 75.53955] CT
/Helvetica 11.875 F
GS
[1 0 0 1 0 0] CT
0 4.5 moveto 
1 -1 scale
(s=4) t 
GR
GR
GS
[0.75789 0 0 0.75789 0 -0.10529] CT
0.929 0.694 0.125 RC
[8 3 2 3] 0 setdash
2 LJ
0.66 LW
N
661.022 99.809 M
700.827 99.809 L
S
GR
GS
[0.75789 0 0 0.75789 533.43929 87.3766] CT
/Helvetica 11.875 F
GS
[1 0 0 1 0 0] CT
0 4.5 moveto 
1 -1 scale
(s=6) t 
GR
GR
GS
[0.75789 0 0 0.75789 0 -0.10529] CT
0.494 0.184 0.557 RC
1 LJ
0.66 LW
N
661.022 115.427 M
700.827 115.427 L
S
GR
GS
[0.75789 0 0 0.75789 0 -0.10529] CT
0.149 GC
10.0 ML
0.66 LW
N
657 125 M
657 59 L
732 59 L
732 125 L
cp
S
GR
%%Trailer
%%Pages: 1
%%EOF
