% This file was created by matlab2tikz.
%
%The latest updates can be retrieved from
%  http://www.mathworks.com/matlabcentral/fileexchange/22022-matlab2tikz-matlab2tikz
%where you can also make suggestions and rate matlab2tikz.
%
\definecolor{mycolor1}{rgb}{0.00000,0.44700,0.74100}%
%
\begin{tikzpicture}

\begin{axis}[%
scale = 0.5,
xmin=1,
xmax=10,
ymode=log,
ymin=0.0001,
ymax=0.1,
yminorticks=true,
axis background/.style={fill=white},
clip mode=individual,
xlabel = {s},
]
\addplot [color=mycolor1,solid,forget plot]
  table[row sep=crcr]{%
1	0.0564063028817064\\
2	0.00242388603543792\\
3	0.00125968185433298\\
4	0.000612276000743798\\
5	0.00043846715248092\\
6	0.000398547165714432\\
7	0.000441415822073405\\
8	0.00057662392646951\\
9	0.000868057482458066\\
10	0.00147981113559345\\
};
\end{axis}
\end{tikzpicture}%