%!PS-Adobe-3.0 EPSF-3.0
%%Creator: (MATLAB, The Mathworks, Inc. Version 9.2.0.538062 \(R2017a\). Operating System: Linux)
%%Title: (/afs/kth.se/home/i/z/izzo/Documents/Approximation Theory/Project/gitshared/project/latex/plot34b.eps)
%%CreationDate: 2017-10-24T16:46:57
%%Pages: (atend)
%%BoundingBox: 0 0 748 590
%%LanguageLevel: 3
%%EndComments
%%BeginProlog
%%BeginResource: procset (Apache XML Graphics Std ProcSet) 1.2 0
%%Version: 1.2 0
%%Copyright: (Copyright 2001-2003,2010 The Apache Software Foundation. License terms: http://www.apache.org/licenses/LICENSE-2.0)
/bd{bind def}bind def
/ld{load def}bd
/GR/grestore ld
/M/moveto ld
/LJ/setlinejoin ld
/C/curveto ld
/f/fill ld
/LW/setlinewidth ld
/GC/setgray ld
/t/show ld
/N/newpath ld
/CT/concat ld
/cp/closepath ld
/S/stroke ld
/L/lineto ld
/CC/setcmykcolor ld
/A/ashow ld
/GS/gsave ld
/RC/setrgbcolor ld
/RM/rmoveto ld
/ML/setmiterlimit ld
/re {4 2 roll M
1 index 0 rlineto
0 exch rlineto
neg 0 rlineto
cp } bd
/_ctm matrix def
/_tm matrix def
/BT { _ctm currentmatrix pop matrix _tm copy pop 0 0 moveto } bd
/ET { _ctm setmatrix } bd
/iTm { _ctm setmatrix _tm concat } bd
/Tm { _tm astore pop iTm 0 0 moveto } bd
/ux 0.0 def
/uy 0.0 def
/F {
  /Tp exch def
  /Tf exch def
  Tf findfont Tp scalefont setfont
  /cf Tf def  /cs Tp def
} bd
/ULS {currentpoint /uy exch def /ux exch def} bd
/ULE {
  /Tcx currentpoint pop def
  gsave
  newpath
  cf findfont cs scalefont dup
  /FontMatrix get 0 get /Ts exch def /FontInfo get dup
  /UnderlinePosition get Ts mul /To exch def
  /UnderlineThickness get Ts mul /Tt exch def
  ux uy To add moveto  Tcx uy To add lineto
  Tt setlinewidth stroke
  grestore
} bd
/OLE {
  /Tcx currentpoint pop def
  gsave
  newpath
  cf findfont cs scalefont dup
  /FontMatrix get 0 get /Ts exch def /FontInfo get dup
  /UnderlinePosition get Ts mul /To exch def
  /UnderlineThickness get Ts mul /Tt exch def
  ux uy To add cs add moveto Tcx uy To add cs add lineto
  Tt setlinewidth stroke
  grestore
} bd
/SOE {
  /Tcx currentpoint pop def
  gsave
  newpath
  cf findfont cs scalefont dup
  /FontMatrix get 0 get /Ts exch def /FontInfo get dup
  /UnderlinePosition get Ts mul /To exch def
  /UnderlineThickness get Ts mul /Tt exch def
  ux uy To add cs 10 mul 26 idiv add moveto Tcx uy To add cs 10 mul 26 idiv add lineto
  Tt setlinewidth stroke
  grestore
} bd
/QT {
/Y22 exch store
/X22 exch store
/Y21 exch store
/X21 exch store
currentpoint
/Y21 load 2 mul add 3 div exch
/X21 load 2 mul add 3 div exch
/X21 load 2 mul /X22 load add 3 div
/Y21 load 2 mul /Y22 load add 3 div
/X22 load /Y22 load curveto
} bd
/SSPD {
dup length /d exch dict def
{
/v exch def
/k exch def
currentpagedevice k known {
/cpdv currentpagedevice k get def
v cpdv ne {
/upd false def
/nullv v type /nulltype eq def
/nullcpdv cpdv type /nulltype eq def
nullv nullcpdv or
{
/upd true def
} {
/sametype v type cpdv type eq def
sametype {
v type /arraytype eq {
/vlen v length def
/cpdvlen cpdv length def
vlen cpdvlen eq {
0 1 vlen 1 sub {
/i exch def
/obj v i get def
/cpdobj cpdv i get def
obj cpdobj ne {
/upd true def
exit
} if
} for
} {
/upd true def
} ifelse
} {
v type /dicttype eq {
v {
/dv exch def
/dk exch def
/cpddv cpdv dk get def
dv cpddv ne {
/upd true def
exit
} if
} forall
} {
/upd true def
} ifelse
} ifelse
} if
} ifelse
upd true eq {
d k v put
} if
} if
} if
} forall
d length 0 gt {
d setpagedevice
} if
} bd
/RE { % /NewFontName [NewEncodingArray] /FontName RE -
  findfont dup length dict begin
  {
    1 index /FID ne
    {def} {pop pop} ifelse
  } forall
  /Encoding exch def
  /FontName 1 index def
  currentdict definefont pop
  end
} bind def
%%EndResource
%%BeginResource: procset (Apache XML Graphics EPS ProcSet) 1.0 0
%%Version: 1.0 0
%%Copyright: (Copyright 2002-2003 The Apache Software Foundation. License terms: http://www.apache.org/licenses/LICENSE-2.0)
/BeginEPSF { %def
/b4_Inc_state save def         % Save state for cleanup
/dict_count countdictstack def % Count objects on dict stack
/op_count count 1 sub def      % Count objects on operand stack
userdict begin                 % Push userdict on dict stack
/showpage { } def              % Redefine showpage, { } = null proc
0 setgray 0 setlinecap         % Prepare graphics state
1 setlinewidth 0 setlinejoin
10 setmiterlimit [ ] 0 setdash newpath
/languagelevel where           % If level not equal to 1 then
{pop languagelevel             % set strokeadjust and
1 ne                           % overprint to their defaults.
{false setstrokeadjust false setoverprint
} if
} if
} bd
/EndEPSF { %def
count op_count sub {pop} repeat            % Clean up stacks
countdictstack dict_count sub {end} repeat
b4_Inc_state restore
} bd
%%EndResource
%FOPBeginFontDict
%%IncludeResource: font Courier-Bold
%%IncludeResource: font Helvetica
%%IncludeResource: font Courier-BoldOblique
%%IncludeResource: font Courier-Oblique
%%IncludeResource: font Times-Roman
%%IncludeResource: font Helvetica-BoldOblique
%%IncludeResource: font Helvetica-Bold
%%IncludeResource: font Helvetica-Oblique
%%IncludeResource: font Times-BoldItalic
%%IncludeResource: font Courier
%%IncludeResource: font Times-Italic
%%IncludeResource: font Times-Bold
%%IncludeResource: font Symbol
%%IncludeResource: font ZapfDingbats
%FOPEndFontDict
%%BeginResource: encoding WinAnsiEncoding
/WinAnsiEncoding [
/.notdef /.notdef /.notdef /.notdef /.notdef
/.notdef /.notdef /.notdef /.notdef /.notdef
/.notdef /.notdef /.notdef /.notdef /.notdef
/.notdef /.notdef /.notdef /.notdef /.notdef
/.notdef /.notdef /.notdef /.notdef /.notdef
/.notdef /.notdef /.notdef /.notdef /.notdef
/.notdef /.notdef /space /exclam /quotedbl
/numbersign /dollar /percent /ampersand /quotesingle
/parenleft /parenright /asterisk /plus /comma
/hyphen /period /slash /zero /one
/two /three /four /five /six
/seven /eight /nine /colon /semicolon
/less /equal /greater /question /at
/A /B /C /D /E
/F /G /H /I /J
/K /L /M /N /O
/P /Q /R /S /T
/U /V /W /X /Y
/Z /bracketleft /backslash /bracketright /asciicircum
/underscore /quoteleft /a /b /c
/d /e /f /g /h
/i /j /k /l /m
/n /o /p /q /r
/s /t /u /v /w
/x /y /z /braceleft /bar
/braceright /asciitilde /bullet /Euro /bullet
/quotesinglbase /florin /quotedblbase /ellipsis /dagger
/daggerdbl /circumflex /perthousand /Scaron /guilsinglleft
/OE /bullet /Zcaron /bullet /bullet
/quoteleft /quoteright /quotedblleft /quotedblright /bullet
/endash /emdash /asciitilde /trademark /scaron
/guilsinglright /oe /bullet /zcaron /Ydieresis
/space /exclamdown /cent /sterling /currency
/yen /brokenbar /section /dieresis /copyright
/ordfeminine /guillemotleft /logicalnot /sfthyphen /registered
/macron /degree /plusminus /twosuperior /threesuperior
/acute /mu /paragraph /middot /cedilla
/onesuperior /ordmasculine /guillemotright /onequarter /onehalf
/threequarters /questiondown /Agrave /Aacute /Acircumflex
/Atilde /Adieresis /Aring /AE /Ccedilla
/Egrave /Eacute /Ecircumflex /Edieresis /Igrave
/Iacute /Icircumflex /Idieresis /Eth /Ntilde
/Ograve /Oacute /Ocircumflex /Otilde /Odieresis
/multiply /Oslash /Ugrave /Uacute /Ucircumflex
/Udieresis /Yacute /Thorn /germandbls /agrave
/aacute /acircumflex /atilde /adieresis /aring
/ae /ccedilla /egrave /eacute /ecircumflex
/edieresis /igrave /iacute /icircumflex /idieresis
/eth /ntilde /ograve /oacute /ocircumflex
/otilde /odieresis /divide /oslash /ugrave
/uacute /ucircumflex /udieresis /yacute /thorn
/ydieresis
] def
%%EndResource
%FOPBeginFontReencode
/Courier-Bold findfont
dup length dict begin
  {1 index /FID ne {def} {pop pop} ifelse} forall
  /Encoding WinAnsiEncoding def
  currentdict
end
/Courier-Bold exch definefont pop
/Helvetica findfont
dup length dict begin
  {1 index /FID ne {def} {pop pop} ifelse} forall
  /Encoding WinAnsiEncoding def
  currentdict
end
/Helvetica exch definefont pop
/Courier-BoldOblique findfont
dup length dict begin
  {1 index /FID ne {def} {pop pop} ifelse} forall
  /Encoding WinAnsiEncoding def
  currentdict
end
/Courier-BoldOblique exch definefont pop
/Courier-Oblique findfont
dup length dict begin
  {1 index /FID ne {def} {pop pop} ifelse} forall
  /Encoding WinAnsiEncoding def
  currentdict
end
/Courier-Oblique exch definefont pop
/Times-Roman findfont
dup length dict begin
  {1 index /FID ne {def} {pop pop} ifelse} forall
  /Encoding WinAnsiEncoding def
  currentdict
end
/Times-Roman exch definefont pop
/Helvetica-BoldOblique findfont
dup length dict begin
  {1 index /FID ne {def} {pop pop} ifelse} forall
  /Encoding WinAnsiEncoding def
  currentdict
end
/Helvetica-BoldOblique exch definefont pop
/Helvetica-Bold findfont
dup length dict begin
  {1 index /FID ne {def} {pop pop} ifelse} forall
  /Encoding WinAnsiEncoding def
  currentdict
end
/Helvetica-Bold exch definefont pop
/Helvetica-Oblique findfont
dup length dict begin
  {1 index /FID ne {def} {pop pop} ifelse} forall
  /Encoding WinAnsiEncoding def
  currentdict
end
/Helvetica-Oblique exch definefont pop
/Times-BoldItalic findfont
dup length dict begin
  {1 index /FID ne {def} {pop pop} ifelse} forall
  /Encoding WinAnsiEncoding def
  currentdict
end
/Times-BoldItalic exch definefont pop
/Courier findfont
dup length dict begin
  {1 index /FID ne {def} {pop pop} ifelse} forall
  /Encoding WinAnsiEncoding def
  currentdict
end
/Courier exch definefont pop
/Times-Italic findfont
dup length dict begin
  {1 index /FID ne {def} {pop pop} ifelse} forall
  /Encoding WinAnsiEncoding def
  currentdict
end
/Times-Italic exch definefont pop
/Times-Bold findfont
dup length dict begin
  {1 index /FID ne {def} {pop pop} ifelse} forall
  /Encoding WinAnsiEncoding def
  currentdict
end
/Times-Bold exch definefont pop
%FOPEndFontReencode
%%EndProlog
%%Page: 1 1
%%PageBoundingBox: 0 0 748 590
%%BeginPageSetup
[1 0 0 -1 0 590] CT
%%EndPageSetup
GS
[0.75789 0 0 0.75789 0 -0.39996] CT
1 GC
N
0 0 987 779 re
f
GR
GS
[0.75789 0 0 0.75789 0 -0.39996] CT
1 GC
N
0 0 987 779 re
f
GR
GS
[0.75789 0 0 0.75789 0 -0.39996] CT
1 GC
N
128 693 M
893 693 L
893 58 L
128 58 L
cp
f
GR
GS
[0.75789 0 0 0.75789 0 -0.39996] CT
0.149 GC
2 setlinecap
1 LJ
0.66 LW
N
128 693 M
893 693 L
S
GR
GS
[0.75789 0 0 0.75789 0 -0.39996] CT
0.149 GC
2 setlinecap
1 LJ
0.66 LW
N
128 58 M
893 58 L
S
GR
GS
[0.75789 0 0 0.75789 0 -0.39996] CT
0.149 GC
2 setlinecap
1 LJ
0.66 LW
N
128 693 M
128 685.35 L
S
GR
GS
[0.75789 0 0 0.75789 0 -0.39996] CT
0.149 GC
2 setlinecap
1 LJ
0.66 LW
N
204.5 693 M
204.5 685.35 L
S
GR
GS
[0.75789 0 0 0.75789 0 -0.39996] CT
0.149 GC
2 setlinecap
1 LJ
0.66 LW
N
281 693 M
281 685.35 L
S
GR
GS
[0.75789 0 0 0.75789 0 -0.39996] CT
0.149 GC
2 setlinecap
1 LJ
0.66 LW
N
357.5 693 M
357.5 685.35 L
S
GR
GS
[0.75789 0 0 0.75789 0 -0.39996] CT
0.149 GC
2 setlinecap
1 LJ
0.66 LW
N
434 693 M
434 685.35 L
S
GR
GS
[0.75789 0 0 0.75789 0 -0.39996] CT
0.149 GC
2 setlinecap
1 LJ
0.66 LW
N
510.5 693 M
510.5 685.35 L
S
GR
GS
[0.75789 0 0 0.75789 0 -0.39996] CT
0.149 GC
2 setlinecap
1 LJ
0.66 LW
N
587 693 M
587 685.35 L
S
GR
GS
[0.75789 0 0 0.75789 0 -0.39996] CT
0.149 GC
2 setlinecap
1 LJ
0.66 LW
N
663.5 693 M
663.5 685.35 L
S
GR
GS
[0.75789 0 0 0.75789 0 -0.39996] CT
0.149 GC
2 setlinecap
1 LJ
0.66 LW
N
740 693 M
740 685.35 L
S
GR
GS
[0.75789 0 0 0.75789 0 -0.39996] CT
0.149 GC
2 setlinecap
1 LJ
0.66 LW
N
816.5 693 M
816.5 685.35 L
S
GR
GS
[0.75789 0 0 0.75789 0 -0.39996] CT
0.149 GC
2 setlinecap
1 LJ
0.66 LW
N
893 693 M
893 685.35 L
S
GR
GS
[0.75789 0 0 0.75789 0 -0.39996] CT
0.149 GC
2 setlinecap
1 LJ
0.66 LW
N
128 58 M
128 65.65 L
S
GR
GS
[0.75789 0 0 0.75789 0 -0.39996] CT
0.149 GC
2 setlinecap
1 LJ
0.66 LW
N
204.5 58 M
204.5 65.65 L
S
GR
GS
[0.75789 0 0 0.75789 0 -0.39996] CT
0.149 GC
2 setlinecap
1 LJ
0.66 LW
N
281 58 M
281 65.65 L
S
GR
GS
[0.75789 0 0 0.75789 0 -0.39996] CT
0.149 GC
2 setlinecap
1 LJ
0.66 LW
N
357.5 58 M
357.5 65.65 L
S
GR
GS
[0.75789 0 0 0.75789 0 -0.39996] CT
0.149 GC
2 setlinecap
1 LJ
0.66 LW
N
434 58 M
434 65.65 L
S
GR
GS
[0.75789 0 0 0.75789 0 -0.39996] CT
0.149 GC
2 setlinecap
1 LJ
0.66 LW
N
510.5 58 M
510.5 65.65 L
S
GR
GS
[0.75789 0 0 0.75789 0 -0.39996] CT
0.149 GC
2 setlinecap
1 LJ
0.66 LW
N
587 58 M
587 65.65 L
S
GR
GS
[0.75789 0 0 0.75789 0 -0.39996] CT
0.149 GC
2 setlinecap
1 LJ
0.66 LW
N
663.5 58 M
663.5 65.65 L
S
GR
GS
[0.75789 0 0 0.75789 0 -0.39996] CT
0.149 GC
2 setlinecap
1 LJ
0.66 LW
N
740 58 M
740 65.65 L
S
GR
GS
[0.75789 0 0 0.75789 0 -0.39996] CT
0.149 GC
2 setlinecap
1 LJ
0.66 LW
N
816.5 58 M
816.5 65.65 L
S
GR
GS
[0.75789 0 0 0.75789 0 -0.39996] CT
0.149 GC
2 setlinecap
1 LJ
0.66 LW
N
893 58 M
893 65.65 L
S
GR
GS
[0.75789 0 0 0.75789 97.01053 528.82105] CT
0.149 GC
/Helvetica 13.194 F
GS
[1 0 0 1 0 0] CT
-4.5 13 moveto 
1 -1 scale
(0) t 
GR
GR
GS
[0.75789 0 0 0.75789 154.98948 528.82105] CT
0.149 GC
/Helvetica 13.194 F
GS
[1 0 0 1 0 0] CT
-8.5 13 moveto 
1 -1 scale
(50) t 
GR
GR
GS
[0.75789 0 0 0.75789 212.96842 528.82105] CT
0.149 GC
/Helvetica 13.194 F
GS
[1 0 0 1 0 0] CT
-12.5 13 moveto 
1 -1 scale
(100) t 
GR
GR
GS
[0.75789 0 0 0.75789 270.94737 528.82105] CT
0.149 GC
/Helvetica 13.194 F
GS
[1 0 0 1 0 0] CT
-12.5 13 moveto 
1 -1 scale
(150) t 
GR
GR
GS
[0.75789 0 0 0.75789 328.92632 528.82105] CT
0.149 GC
/Helvetica 13.194 F
GS
[1 0 0 1 0 0] CT
-12.5 13 moveto 
1 -1 scale
(200) t 
GR
GR
GS
[0.75789 0 0 0.75789 386.90527 528.82105] CT
0.149 GC
/Helvetica 13.194 F
GS
[1 0 0 1 0 0] CT
-12.5 13 moveto 
1 -1 scale
(250) t 
GR
GR
GS
[0.75789 0 0 0.75789 444.88422 528.82105] CT
0.149 GC
/Helvetica 13.194 F
GS
[1 0 0 1 0 0] CT
-12.5 13 moveto 
1 -1 scale
(300) t 
GR
GR
GS
[0.75789 0 0 0.75789 502.86316 528.82105] CT
0.149 GC
/Helvetica 13.194 F
GS
[1 0 0 1 0 0] CT
-12.5 13 moveto 
1 -1 scale
(350) t 
GR
GR
GS
[0.75789 0 0 0.75789 560.84211 528.82105] CT
0.149 GC
/Helvetica 13.194 F
GS
[1 0 0 1 0 0] CT
-12.5 13 moveto 
1 -1 scale
(400) t 
GR
GR
GS
[0.75789 0 0 0.75789 618.82106 528.82105] CT
0.149 GC
/Helvetica 13.194 F
GS
[1 0 0 1 0 0] CT
-12.5 13 moveto 
1 -1 scale
(450) t 
GR
GR
GS
[0.75789 0 0 0.75789 676.80001 528.82105] CT
0.149 GC
/Helvetica 13.194 F
GS
[1 0 0 1 0 0] CT
-12.5 13 moveto 
1 -1 scale
(500) t 
GR
GR
GS
[0.75789 0 0 0.75789 386.90555 542.70527] CT
0.149 GC
/Helvetica 14.514 F
GS
[1 0 0 1 0 0] CT
-38.5 14 moveto 
1 -1 scale
(w=omega) t 
GR
GR
GS
[0.75789 0 0 0.75789 0 -0.39996] CT
0.149 GC
2 setlinecap
1 LJ
0.66 LW
N
128 693 M
128 58 L
S
GR
GS
[0.75789 0 0 0.75789 0 -0.39996] CT
0.149 GC
2 setlinecap
1 LJ
0.66 LW
N
893 693 M
893 58 L
S
GR
GS
[0.75789 0 0 0.75789 0 -0.39996] CT
0.149 GC
2 setlinecap
1 LJ
0.66 LW
N
128 693 M
135.65 693 L
S
GR
GS
[0.75789 0 0 0.75789 0 -0.39996] CT
0.149 GC
2 setlinecap
1 LJ
0.66 LW
N
128 613.625 M
135.65 613.625 L
S
GR
GS
[0.75789 0 0 0.75789 0 -0.39996] CT
0.149 GC
2 setlinecap
1 LJ
0.66 LW
N
128 534.25 M
135.65 534.25 L
S
GR
GS
[0.75789 0 0 0.75789 0 -0.39996] CT
0.149 GC
2 setlinecap
1 LJ
0.66 LW
N
128 454.875 M
135.65 454.875 L
S
GR
GS
[0.75789 0 0 0.75789 0 -0.39996] CT
0.149 GC
2 setlinecap
1 LJ
0.66 LW
N
128 375.5 M
135.65 375.5 L
S
GR
GS
[0.75789 0 0 0.75789 0 -0.39996] CT
0.149 GC
2 setlinecap
1 LJ
0.66 LW
N
128 296.125 M
135.65 296.125 L
S
GR
GS
[0.75789 0 0 0.75789 0 -0.39996] CT
0.149 GC
2 setlinecap
1 LJ
0.66 LW
N
128 216.75 M
135.65 216.75 L
S
GR
GS
[0.75789 0 0 0.75789 0 -0.39996] CT
0.149 GC
2 setlinecap
1 LJ
0.66 LW
N
128 137.375 M
135.65 137.375 L
S
GR
GS
[0.75789 0 0 0.75789 0 -0.39996] CT
0.149 GC
2 setlinecap
1 LJ
0.66 LW
N
128 58 M
135.65 58 L
S
GR
GS
[0.75789 0 0 0.75789 0 -0.39996] CT
0.149 GC
2 setlinecap
1 LJ
0.66 LW
N
893 693 M
885.35 693 L
S
GR
GS
[0.75789 0 0 0.75789 0 -0.39996] CT
0.149 GC
2 setlinecap
1 LJ
0.66 LW
N
893 613.625 M
885.35 613.625 L
S
GR
GS
[0.75789 0 0 0.75789 0 -0.39996] CT
0.149 GC
2 setlinecap
1 LJ
0.66 LW
N
893 534.25 M
885.35 534.25 L
S
GR
GS
[0.75789 0 0 0.75789 0 -0.39996] CT
0.149 GC
2 setlinecap
1 LJ
0.66 LW
N
893 454.875 M
885.35 454.875 L
S
GR
GS
[0.75789 0 0 0.75789 0 -0.39996] CT
0.149 GC
2 setlinecap
1 LJ
0.66 LW
N
893 375.5 M
885.35 375.5 L
S
GR
GS
[0.75789 0 0 0.75789 0 -0.39996] CT
0.149 GC
2 setlinecap
1 LJ
0.66 LW
N
893 296.125 M
885.35 296.125 L
S
GR
GS
[0.75789 0 0 0.75789 0 -0.39996] CT
0.149 GC
2 setlinecap
1 LJ
0.66 LW
N
893 216.75 M
885.35 216.75 L
S
GR
GS
[0.75789 0 0 0.75789 0 -0.39996] CT
0.149 GC
2 setlinecap
1 LJ
0.66 LW
N
893 137.375 M
885.35 137.375 L
S
GR
GS
[0.75789 0 0 0.75789 0 -0.39996] CT
0.149 GC
2 setlinecap
1 LJ
0.66 LW
N
893 58 M
885.35 58 L
S
GR
GS
[0.75789 0 0 0.75789 93.01053 524.82106] CT
0.149 GC
/Helvetica 13.194 F
GS
[1 0 0 1 0 0] CT
-9 4.5 moveto 
1 -1 scale
(0) t 
GR
GR
GS
[0.75789 0 0 0.75789 93.01053 464.66317] CT
0.149 GC
/Helvetica 13.194 F
GS
[1 0 0 1 0 0] CT
-21 4.5 moveto 
1 -1 scale
(0.2) t 
GR
GR
GS
[0.75789 0 0 0.75789 93.01053 404.50527] CT
0.149 GC
/Helvetica 13.194 F
GS
[1 0 0 1 0 0] CT
-21 4.5 moveto 
1 -1 scale
(0.4) t 
GR
GR
GS
[0.75789 0 0 0.75789 93.01053 344.34738] CT
0.149 GC
/Helvetica 13.194 F
GS
[1 0 0 1 0 0] CT
-21 4.5 moveto 
1 -1 scale
(0.6) t 
GR
GR
GS
[0.75789 0 0 0.75789 93.01053 284.18949] CT
0.149 GC
/Helvetica 13.194 F
GS
[1 0 0 1 0 0] CT
-21 4.5 moveto 
1 -1 scale
(0.8) t 
GR
GR
GS
[0.75789 0 0 0.75789 93.01053 224.0316] CT
0.149 GC
/Helvetica 13.194 F
GS
[1 0 0 1 0 0] CT
-9 4.5 moveto 
1 -1 scale
(1) t 
GR
GR
GS
[0.75789 0 0 0.75789 93.01053 163.8737] CT
0.149 GC
/Helvetica 13.194 F
GS
[1 0 0 1 0 0] CT
-21 4.5 moveto 
1 -1 scale
(1.2) t 
GR
GR
GS
[0.75789 0 0 0.75789 93.01053 103.71583] CT
0.149 GC
/Helvetica 13.194 F
GS
[1 0 0 1 0 0] CT
-21 4.5 moveto 
1 -1 scale
(1.4) t 
GR
GR
GS
[0.75789 0 0 0.75789 93.01053 43.55792] CT
0.149 GC
/Helvetica 13.194 F
GS
[1 0 0 1 0 0] CT
-21 4.5 moveto 
1 -1 scale
(1.6) t 
GR
GR
GS
[0 -0.75789 0.75789 0 71.24211 312.61054] CT
0.149 GC
/Helvetica 14.514 F
GS
[1 0 0 1 0 0] CT
0 0 moveto 
1 -1 scale
(error * w) t 
GR
GR
GS
[0 -0.75789 0.75789 0 65.93684 261.8316] CT
0.149 GC
/Helvetica 11.611 F
GS
[1 0 0 1 0 0] CT
0 0 moveto 
1 -1 scale
(3) t 
GR
GR
GS
[0.75789 0 0 0.75789 321.34737 38.25267] CT
/Helvetica-Bold 14.514 F
GS
[1 0 0 1 0 0] CT
0 0 moveto 
1 -1 scale
(Error scaled with w) t 
GR
GR
GS
[0.75789 0 0 0.75789 445.64211 32.9474] CT
/Helvetica-Bold 11.611 F
GS
[1 0 0 1 0 0] CT
0 0 moveto 
1 -1 scale
(3) t 
GR
GR
GS
[0.75789 0 0 0.75789 0 -0.39996] CT
0 0.447 0.741 RC
1 LJ
0.66 LW
N
129.53 688.263 M
134.12 563.592 L
138.71 419.309 L
143.3 346.095 L
147.89 283.136 L
152.48 256.564 L
157.07 244.561 L
161.66 222.044 L
166.25 232.591 L
170.84 212.931 L
175.43 223.89 L
180.02 216.402 L
184.61 215.083 L
189.2 223.286 L
193.79 209.573 L
198.38 226.619 L
202.97 210.337 L
207.56 223.745 L
212.15 216.719 L
216.74 217.112 L
221.33 224.519 L
225.92 211.825 L
230.51 228.576 L
235.1 211.832 L
239.69 226.351 L
244.28 217.409 L
248.87 219.803 L
253.46 225.05 L
258.05 213.811 L
262.64 229.699 L
267.23 212.653 L
271.82 228.278 L
276.41 217.271 L
281 222.003 L
285.59 224.737 L
290.18 215.43 L
294.77 230.077 L
299.36 213.135 L
303.95 229.655 L
308.54 216.738 L
313.13 223.89 L
317.72 223.945 L
322.31 216.919 L
326.9 229.949 L
331.49 213.551 L
336.08 230.627 L
340.67 216.075 L
345.26 225.57 L
349.85 222.886 L
354.44 218.393 L
359.03 229.452 L
363.62 214.038 L
368.21 231.261 L
372.8 215.428 L
377.39 227.078 L
381.98 221.689 L
386.57 219.893 L
391.16 228.671 L
395.75 214.66 L
400.34 231.591 L
404.93 214.882 L
409.52 228.416 L
414.11 220.44 L
418.7 221.42 L
423.29 227.667 L
427.88 215.443 L
432.47 231.633 L
437.06 214.491 L
441.65 229.57 L
446.24 219.206 L
450.83 222.958 L
455.42 226.491 L
460.01 216.393 L
464.6 231.404 L
469.19 214.289 L
473.78 230.52 L
478.37 218.04 L
482.96 224.479 L
487.55 225.19 L
492.14 217.501 L
496.73 230.921 L
501.32 214.298 L
505.91 231.247 L
510.5 216.986 L
515.09 225.951 L
519.68 223.812 L
524.27 218.747 L
528.86 230.203 L
533.45 214.527 L
538.04 231.736 L
542.63 216.082 L
547.22 227.338 L
551.81 222.401 L
556.4 220.105 L
560.99 229.275 L
565.58 214.979 L
570.17 231.976 L
574.76 215.358 L
579.35 228.604 L
583.94 221 L
588.53 221.542 L
593.12 228.169 L
597.71 215.645 L
602.3 231.961 L
606.89 214.838 L
611.48 229.715 L
616.07 219.654 L
620.66 223.023 L
625.25 226.918 L
629.84 216.512 L
634.43 231.695 L
639.02 214.539 L
643.61 230.642 L
648.2 218.4 L
652.79 224.51 L
657.38 225.559 L
661.97 217.561 L
666.56 231.185 L
671.15 214.473 L
675.74 231.358 L
680.33 217.275 L
684.92 225.961 L
689.51 224.134 L
694.1 218.765 L
698.69 230.448 L
703.28 214.644 L
707.87 231.844 L
712.46 216.312 L
717.05 227.338 L
721.64 222.682 L
726.23 220.093 L
730.82 229.507 L
735.41 215.048 L
740 232.085 L
744.59 215.538 L
749.18 228.601 L
753.77 221.247 L
758.36 221.51 L
762.95 228.388 L
767.54 215.676 L
772.13 232.075 L
776.72 214.975 L
781.31 229.716 L
785.9 219.868 L
790.49 222.979 L
795.08 227.126 L
799.67 216.513 L
804.26 231.814 L
808.85 214.639 L
813.44 230.65 L
818.03 218.584 L
822.62 224.458 L
827.21 225.756 L
831.8 217.538 L
836.39 231.311 L
840.98 214.54 L
845.57 231.376 L
850.16 217.432 L
854.75 225.908 L
859.34 224.319 L
863.93 218.723 L
868.52 230.58 L
873.11 214.681 L
877.7 231.873 L
882.29 216.442 L
886.88 227.287 L
891.47 222.855 L
S
GR
GS
[0.75789 0 0 0.75789 0 -0.39996] CT
0.851 0.325 0.098 RC
1 LJ
0.66 LW
N
129.53 686.631 M
134.12 547.239 L
138.71 388.112 L
143.3 296.683 L
147.89 211.834 L
152.48 176.057 L
157.07 147.375 L
161.66 118.588 L
166.25 122.075 L
170.84 93.743 L
175.43 105.521 L
180.02 87.998 L
184.61 89.825 L
189.2 91.014 L
193.79 77.377 L
198.38 93.536 L
202.97 72.306 L
207.56 90.059 L
212.15 75.407 L
216.74 81.128 L
221.33 82.877 L
225.92 71.932 L
230.51 88.407 L
235.1 68.016 L
239.69 87.31 L
244.28 71.422 L
248.87 79.868 L
253.46 79.401 L
258.05 70.971 L
262.64 86.114 L
267.23 66.428 L
271.82 86.542 L
276.41 69.028 L
281 80.146 L
285.59 76.83 L
290.18 71.246 L
294.77 84.359 L
299.36 65.78 L
303.95 86.198 L
308.54 67.252 L
313.13 80.9 L
317.72 74.563 L
322.31 72.078 L
326.9 82.679 L
331.49 65.683 L
336.08 85.877 L
340.67 65.887 L
345.26 81.797 L
349.85 72.469 L
354.44 73.229 L
359.03 80.952 L
363.62 65.999 L
368.21 85.43 L
372.8 64.874 L
377.39 82.677 L
381.98 70.53 L
386.57 74.57 L
391.16 79.15 L
395.75 66.656 L
400.34 84.793 L
404.93 64.195 L
409.52 83.448 L
414.11 68.759 L
418.7 76.011 L
423.29 77.281 L
427.88 67.599 L
432.47 83.94 L
437.06 63.844 L
441.65 84.045 L
446.24 67.182 L
450.83 77.479 L
455.42 75.373 L
460.01 68.782 L
464.6 82.865 L
469.19 63.814 L
473.78 84.423 L
478.37 65.825 L
482.96 78.912 L
487.55 73.463 L
492.14 70.155 L
496.73 81.581 L
501.32 64.092 L
505.91 84.551 L
510.5 64.717 L
515.09 80.25 L
519.68 71.591 L
524.27 71.67 L
528.86 80.111 L
533.45 64.665 L
538.04 84.411 L
542.63 63.877 L
547.22 81.445 L
551.81 69.8 L
556.4 73.275 L
560.99 78.486 L
565.58 65.509 L
570.17 83.995 L
574.76 63.323 L
579.35 82.451 L
583.94 68.133 L
588.53 74.918 L
593.12 76.744 L
597.71 66.597 L
602.3 83.306 L
606.89 63.066 L
611.48 83.23 L
616.07 66.63 L
620.66 76.548 L
625.25 74.928 L
629.84 67.895 L
634.43 82.358 L
639.02 63.107 L
643.61 83.754 L
648.2 65.329 L
652.79 78.113 L
657.38 73.086 L
661.97 69.363 L
666.56 81.173 L
671.15 63.444 L
675.74 84 L
680.33 64.26 L
684.92 79.563 L
689.51 71.263 L
694.1 70.959 L
698.69 79.779 L
703.28 64.064 L
707.87 83.958 L
712.46 63.45 L
717.05 80.854 L
721.64 69.509 L
726.23 72.635 L
730.82 78.214 L
735.41 64.948 L
740 83.624 L
744.59 62.919 L
749.18 81.943 L
753.77 67.868 L
758.36 74.342 L
762.95 76.518 L
767.54 66.072 L
772.13 83.004 L
776.72 62.678 L
781.31 82.796 L
785.9 66.383 L
790.49 76.03 L
795.08 74.739 L
799.67 67.401 L
804.26 82.113 L
808.85 62.732 L
813.44 83.385 L
818.03 65.092 L
822.62 77.648 L
827.21 72.923 L
831.8 68.9 L
836.39 80.975 L
840.98 63.079 L
845.57 83.69 L
850.16 64.029 L
854.75 79.148 L
859.34 71.119 L
863.93 70.524 L
868.52 79.621 L
873.11 63.708 L
877.7 83.7 L
882.29 63.222 L
886.88 80.486 L
891.47 69.377 L
S
GR
GS
[0.75789 0 0 0.75789 0 -0.39996] CT
0.929 0.694 0.125 RC
1 LJ
0.66 LW
N
129.53 690.433 M
134.12 605.972 L
138.71 499.154 L
143.3 429.654 L
147.89 385.712 L
152.48 361.337 L
157.07 348.094 L
161.66 338.405 L
166.25 336.219 L
170.84 331.795 L
175.43 332.34 L
180.02 331.199 L
184.61 331.007 L
189.2 332.436 L
193.79 330.918 L
198.38 333.584 L
202.97 331.849 L
207.56 333.972 L
212.15 333.482 L
216.74 333.812 L
221.33 335.176 L
225.92 333.744 L
230.51 336.255 L
235.1 334.295 L
239.69 336.423 L
244.28 335.497 L
248.87 335.955 L
253.46 336.876 L
258.05 335.505 L
262.64 337.78 L
267.23 335.655 L
271.82 337.838 L
276.41 336.532 L
281 337.228 L
285.59 337.731 L
290.18 336.55 L
294.77 338.598 L
299.36 336.423 L
303.95 338.68 L
308.54 337.063 L
313.13 338.047 L
317.72 338.149 L
322.31 337.239 L
326.9 339.04 L
331.49 336.902 L
336.08 339.211 L
340.67 337.344 L
345.26 338.623 L
349.85 338.337 L
354.44 337.747 L
359.03 339.268 L
363.62 337.239 L
368.21 339.557 L
372.8 337.498 L
377.39 339.056 L
381.98 338.394 L
386.57 338.155 L
391.16 339.362 L
395.75 337.507 L
400.34 339.779 L
404.93 337.59 L
409.52 339.395 L
414.11 338.378 L
418.7 338.504 L
423.29 339.369 L
427.88 337.743 L
432.47 339.913 L
437.06 337.654 L
441.65 339.663 L
446.24 338.322 L
450.83 338.814 L
455.42 339.314 L
460.01 337.966 L
464.6 339.977 L
469.19 337.714 L
473.78 339.875 L
478.37 338.246 L
482.96 339.095 L
487.55 339.218 L
492.14 338.187 L
496.73 339.985 L
501.32 337.781 L
505.91 340.037 L
510.5 338.165 L
515.09 339.351 L
519.68 339.093 L
524.27 338.409 L
528.86 339.946 L
533.45 337.862 L
538.04 340.153 L
542.63 338.091 L
547.22 339.583 L
551.81 338.95 L
556.4 338.635 L
560.99 339.867 L
565.58 337.963 L
570.17 340.226 L
574.76 338.031 L
579.35 339.788 L
583.94 338.8 L
588.53 338.862 L
593.12 339.757 L
597.71 338.085 L
602.3 340.257 L
606.89 337.991 L
611.48 339.966 L
616.07 338.649 L
620.66 339.088 L
625.25 339.62 L
629.84 338.228 L
634.43 340.25 L
639.02 337.975 L
643.61 340.113 L
648.2 338.504 L
652.79 339.309 L
657.38 339.464 L
661.97 338.391 L
666.56 340.206 L
671.15 337.986 L
675.74 340.229 L
680.33 338.373 L
684.92 339.521 L
689.51 339.294 L
694.1 338.57 L
698.69 340.129 L
703.28 338.026 L
707.87 340.311 L
712.46 338.26 L
717.05 339.72 L
721.64 339.117 L
726.23 338.763 L
730.82 340.021 L
735.41 338.094 L
740 340.358 L
744.59 338.169 L
749.18 339.902 L
753.77 338.94 L
758.36 338.966 L
762.95 339.888 L
767.54 338.191 L
772.13 340.371 L
776.72 338.105 L
781.31 340.061 L
785.9 338.767 L
790.49 339.173 L
795.08 339.733 L
799.67 338.314 L
804.26 340.348 L
808.85 338.069 L
813.44 340.195 L
818.03 338.605 L
822.62 339.379 L
827.21 339.562 L
831.8 338.461 L
836.39 340.293 L
840.98 338.064 L
845.57 340.3 L
850.16 338.459 L
854.75 339.58 L
859.34 339.381 L
863.93 338.628 L
868.52 340.206 L
873.11 338.09 L
877.7 340.374 L
882.29 338.333 L
886.88 339.771 L
891.47 339.194 L
S
GR
GS
[0.75789 0 0 0.75789 0 -0.39996] CT
0.494 0.184 0.557 RC
1 LJ
0.66 LW
N
129.53 692.856 M
134.12 681.841 L
138.71 662.003 L
143.3 643.544 L
147.89 639.497 L
152.48 632.762 L
157.07 630.112 L
161.66 634.234 L
166.25 629.343 L
170.84 636.236 L
175.43 633.477 L
180.02 636.542 L
184.61 639.169 L
189.2 636.785 L
193.79 643.542 L
198.38 638.55 L
202.97 645.07 L
207.56 642.081 L
212.15 644.391 L
216.74 646.322 L
221.33 643.458 L
225.92 649.473 L
230.51 643.898 L
235.1 650.187 L
239.69 646.181 L
244.28 648.811 L
248.87 649.535 L
253.46 647.069 L
258.05 652.299 L
262.64 646.607 L
267.23 652.937 L
271.82 648.076 L
276.41 651.412 L
281 650.931 L
285.59 649.248 L
290.18 653.637 L
294.77 648.162 L
299.36 654.508 L
303.95 649.013 L
308.54 653.117 L
313.13 651.49 L
317.72 650.755 L
322.31 654.22 L
326.9 649.2 L
331.49 655.43 L
336.08 649.519 L
340.67 654.33 L
345.26 651.64 L
349.85 651.92 L
354.44 654.381 L
359.03 649.999 L
363.62 655.951 L
368.21 649.831 L
372.8 655.234 L
377.39 651.586 L
381.98 652.892 L
386.57 654.29 L
391.16 650.689 L
395.75 656.195 L
400.34 650.069 L
404.93 655.915 L
409.52 651.438 L
414.11 653.74 L
418.7 654.045 L
423.29 651.335 L
427.88 656.235 L
432.47 650.294 L
437.06 656.418 L
441.65 651.259 L
446.24 654.495 L
450.83 653.707 L
455.42 651.966 L
460.01 656.117 L
464.6 650.542 L
469.19 656.764 L
473.78 651.088 L
478.37 655.168 L
482.96 653.318 L
487.55 652.595 L
492.14 655.876 L
496.73 650.83 L
501.32 656.97 L
505.91 650.952 L
510.5 655.76 L
515.09 652.91 L
519.68 653.224 L
524.27 655.541 L
528.86 651.168 L
533.45 657.044 L
538.04 650.867 L
542.63 656.268 L
547.22 652.508 L
551.81 653.85 L
556.4 655.135 L
560.99 651.557 L
565.58 656.998 L
570.17 650.844 L
574.76 656.684 L
579.35 652.132 L
583.94 654.463 L
588.53 654.681 L
593.12 651.997 L
597.71 656.841 L
602.3 650.891 L
606.89 657.004 L
611.48 651.796 L
616.07 655.052 L
620.66 654.199 L
625.25 652.482 L
629.84 656.586 L
634.43 651.012 L
639.02 657.221 L
643.61 651.514 L
648.2 655.605 L
652.79 653.709 L
657.38 653.004 L
661.97 656.248 L
666.56 651.206 L
671.15 657.331 L
675.74 651.295 L
680.33 656.109 L
684.92 653.228 L
689.51 653.553 L
694.1 655.841 L
698.69 651.473 L
703.28 657.336 L
707.87 651.148 L
712.46 656.549 L
717.05 652.77 L
721.64 654.117 L
726.23 655.383 L
730.82 651.807 L
735.41 657.237 L
740 651.078 L
744.59 656.915 L
749.18 652.351 L
753.77 654.681 L
758.36 654.889 L
762.95 652.204 L
767.54 657.041 L
772.13 651.086 L
776.72 657.195 L
781.31 651.981 L
785.9 655.233 L
790.49 654.377 L
795.08 652.654 L
799.67 656.756 L
804.26 651.176 L
808.85 657.381 L
813.44 651.672 L
818.03 655.756 L
822.62 653.862 L
827.21 653.147 L
831.8 656.395 L
836.39 651.345 L
840.98 657.469 L
845.57 651.431 L
850.16 656.235 L
854.75 653.361 L
859.34 653.673 L
863.93 655.97 L
868.52 651.59 L
873.11 657.455 L
877.7 651.265 L
882.29 656.657 L
886.88 652.887 L
891.47 654.217 L
S
GR
GS
[0.75789 0 0 0.75789 0 -0.39996] CT
0.467 0.675 0.188 RC
1 LJ
0.66 LW
N
129.53 692.787 M
134.12 666.762 L
138.71 625.701 L
143.3 588.591 L
147.89 576.288 L
152.48 562.609 L
157.07 556.019 L
161.66 559.258 L
166.25 550.817 L
170.84 559.32 L
175.43 553.563 L
180.02 557.944 L
184.61 559.437 L
189.2 556.406 L
193.79 564.404 L
198.38 556.937 L
202.97 566.004 L
207.56 560.294 L
212.15 564.453 L
216.74 565.244 L
221.33 562.096 L
225.92 569.289 L
230.51 561.459 L
235.1 570.328 L
239.69 563.629 L
244.28 568.312 L
248.87 567.735 L
253.46 565.291 L
258.05 571.475 L
262.64 563.772 L
267.23 572.591 L
271.82 565.079 L
276.41 570.621 L
281 568.652 L
285.59 567.299 L
290.18 572.369 L
294.77 565.143 L
299.36 573.836 L
303.95 565.736 L
308.54 572.176 L
313.13 568.86 L
317.72 568.772 L
322.31 572.612 L
326.9 566.121 L
331.49 574.519 L
336.08 566.063 L
340.67 573.311 L
345.26 568.731 L
349.85 569.979 L
354.44 572.488 L
359.03 566.942 L
363.62 574.843 L
368.21 566.268 L
372.8 574.17 L
377.39 568.448 L
381.98 571.034 L
386.57 572.141 L
391.16 567.71 L
395.75 574.909 L
400.34 566.455 L
404.93 574.818 L
409.52 568.107 L
414.11 571.985 L
418.7 571.657 L
423.29 568.474 L
427.88 574.775 L
432.47 566.676 L
437.06 575.285 L
441.65 567.77 L
446.24 572.849 L
450.83 571.091 L
455.42 569.251 L
460.01 574.48 L
464.6 566.962 L
469.19 575.586 L
473.78 567.474 L
478.37 573.625 L
482.96 570.485 L
487.55 570.045 L
492.14 574.055 L
496.73 567.326 L
501.32 575.73 L
505.91 567.247 L
510.5 574.309 L
515.09 569.873 L
519.68 570.849 L
524.27 573.527 L
528.86 567.773 L
533.45 575.724 L
538.04 567.106 L
542.63 574.891 L
547.22 569.281 L
551.81 571.652 L
556.4 572.92 L
560.99 568.301 L
565.58 575.577 L
570.17 567.064 L
574.76 575.359 L
579.35 568.734 L
583.94 572.438 L
588.53 572.259 L
593.12 568.903 L
597.71 575.3 L
602.3 567.128 L
606.89 575.706 L
611.48 568.251 L
616.07 573.19 L
620.66 571.569 L
625.25 569.568 L
629.84 574.905 L
634.43 567.302 L
639.02 575.925 L
643.61 567.849 L
648.2 573.89 L
652.79 570.871 L
657.38 570.283 L
661.97 574.407 L
666.56 567.583 L
671.15 576.01 L
675.74 567.542 L
680.33 574.521 L
684.92 570.189 L
689.51 571.03 L
694.1 573.824 L
698.69 567.968 L
703.28 575.963 L
707.87 567.339 L
712.46 575.064 L
717.05 569.543 L
721.64 571.791 L
726.23 573.175 L
730.82 568.449 L
735.41 575.785 L
740 567.248 L
744.59 575.506 L
749.18 568.951 L
753.77 572.546 L
758.36 572.481 L
762.95 569.014 L
767.54 575.485 L
772.13 567.273 L
776.72 575.834 L
781.31 568.432 L
785.9 573.277 L
790.49 571.762 L
795.08 569.651 L
799.67 575.072 L
804.26 567.414 L
808.85 576.04 L
813.44 568 L
818.03 573.961 L
822.62 571.041 L
827.21 570.344 L
831.8 574.56 L
836.39 567.669 L
840.98 576.117 L
845.57 567.666 L
850.16 574.581 L
854.75 570.338 L
859.34 571.074 L
863.93 573.965 L
868.52 568.032 L
873.11 576.063 L
877.7 567.44 L
882.29 575.118 L
886.88 569.673 L
891.47 571.822 L
S
GR
GS
[0.75789 0 0 0.75789 0 -0.39996] CT
1 GC
N
690 496 M
690 410 L
881 410 L
881 496 L
cp
f
GR
GS
[0.75789 0 0 0.75789 558.32983 317.53686] CT
/Helvetica 11.875 F
GS
[1 0 0 1 0 0] CT
0 4.5 moveto 
1 -1 scale
(polynomial degree 3) t 
GR
GR
GS
[0.75789 0 0 0.75789 0 -0.39996] CT
0 0.447 0.741 RC
1 LJ
0.66 LW
N
694.009 419.5 M
733.679 419.5 L
S
GR
GS
[0.75789 0 0 0.75789 558.32983 329.28423] CT
/Helvetica 11.875 F
GS
[1 0 0 1 0 0] CT
0 4.5 moveto 
1 -1 scale
(trigonometric degree 3) t 
GR
GR
GS
[0.75789 0 0 0.75789 0 -0.39996] CT
0.851 0.325 0.098 RC
1 LJ
0.66 LW
N
694.009 435 M
733.679 435 L
S
GR
GS
[0.75789 0 0 0.75789 558.56843 344.44212] CT
/Helvetica 11.875 F
GS
[1 0 0 1 0 0] CT
0 0 moveto 
1 -1 scale
(sigma) t 
GR
GR
GS
[0.75789 0 0 0.75789 586.61053 348.23159] CT
/Helvetica 9.5 F
GS
[1 0 0 1 0 0] CT
0 0 moveto 
1 -1 scale
(k) t 
GR
GR
GS
[0.75789 0 0 0.75789 591.1579 344.44212] CT
/Helvetica 11.875 F
GS
[1 0 0 1 0 0] CT
0 0 moveto 
1 -1 scale
( degree 1) t 
GR
GR
GS
[0.75789 0 0 0.75789 0 -0.39996] CT
0.929 0.694 0.125 RC
1 LJ
0.66 LW
N
694.009 453 M
733.679 453 L
S
GR
GS
[0.75789 0 0 0.75789 558.32983 356.56844] CT
/Helvetica 11.875 F
GS
[1 0 0 1 0 0] CT
0 4.5 moveto 
1 -1 scale
(polynomial degree 4) t 
GR
GR
GS
[0.75789 0 0 0.75789 0 -0.39996] CT
0.494 0.184 0.557 RC
1 LJ
0.66 LW
N
694.009 471 M
733.679 471 L
S
GR
GS
[0.75789 0 0 0.75789 558.32983 368.3158] CT
/Helvetica 11.875 F
GS
[1 0 0 1 0 0] CT
0 4.5 moveto 
1 -1 scale
(trigonometric degree 4) t 
GR
GR
GS
[0.75789 0 0 0.75789 0 -0.39996] CT
0.467 0.675 0.188 RC
1 LJ
0.66 LW
N
694.009 486.5 M
733.679 486.5 L
S
GR
GS
[0.75789 0 0 0.75789 0 -0.39996] CT
0.149 GC
10.0 ML
0.66 LW
N
690 496 M
690 410 L
881 410 L
881 496 L
cp
S
GR
%%Trailer
%%Pages: 1
%%EOF
