%!PS-Adobe-3.0 EPSF-3.0
%%Creator: (MATLAB, The Mathworks, Inc. Version 9.2.0.538062 \(R2017a\). Operating System: Linux)
%%Title: (/afs/kth.se/home/i/z/izzo/Documents/Approximation Theory/Project/gitshared/project/latex/plot34.eps)
%%CreationDate: 2017-10-24T16:43:25
%%Pages: (atend)
%%BoundingBox: 0 0 748 546
%%LanguageLevel: 3
%%EndComments
%%BeginProlog
%%BeginResource: procset (Apache XML Graphics Std ProcSet) 1.2 0
%%Version: 1.2 0
%%Copyright: (Copyright 2001-2003,2010 The Apache Software Foundation. License terms: http://www.apache.org/licenses/LICENSE-2.0)
/bd{bind def}bind def
/ld{load def}bd
/GR/grestore ld
/M/moveto ld
/LJ/setlinejoin ld
/C/curveto ld
/f/fill ld
/LW/setlinewidth ld
/GC/setgray ld
/t/show ld
/N/newpath ld
/CT/concat ld
/cp/closepath ld
/S/stroke ld
/L/lineto ld
/CC/setcmykcolor ld
/A/ashow ld
/GS/gsave ld
/RC/setrgbcolor ld
/RM/rmoveto ld
/ML/setmiterlimit ld
/re {4 2 roll M
1 index 0 rlineto
0 exch rlineto
neg 0 rlineto
cp } bd
/_ctm matrix def
/_tm matrix def
/BT { _ctm currentmatrix pop matrix _tm copy pop 0 0 moveto } bd
/ET { _ctm setmatrix } bd
/iTm { _ctm setmatrix _tm concat } bd
/Tm { _tm astore pop iTm 0 0 moveto } bd
/ux 0.0 def
/uy 0.0 def
/F {
  /Tp exch def
  /Tf exch def
  Tf findfont Tp scalefont setfont
  /cf Tf def  /cs Tp def
} bd
/ULS {currentpoint /uy exch def /ux exch def} bd
/ULE {
  /Tcx currentpoint pop def
  gsave
  newpath
  cf findfont cs scalefont dup
  /FontMatrix get 0 get /Ts exch def /FontInfo get dup
  /UnderlinePosition get Ts mul /To exch def
  /UnderlineThickness get Ts mul /Tt exch def
  ux uy To add moveto  Tcx uy To add lineto
  Tt setlinewidth stroke
  grestore
} bd
/OLE {
  /Tcx currentpoint pop def
  gsave
  newpath
  cf findfont cs scalefont dup
  /FontMatrix get 0 get /Ts exch def /FontInfo get dup
  /UnderlinePosition get Ts mul /To exch def
  /UnderlineThickness get Ts mul /Tt exch def
  ux uy To add cs add moveto Tcx uy To add cs add lineto
  Tt setlinewidth stroke
  grestore
} bd
/SOE {
  /Tcx currentpoint pop def
  gsave
  newpath
  cf findfont cs scalefont dup
  /FontMatrix get 0 get /Ts exch def /FontInfo get dup
  /UnderlinePosition get Ts mul /To exch def
  /UnderlineThickness get Ts mul /Tt exch def
  ux uy To add cs 10 mul 26 idiv add moveto Tcx uy To add cs 10 mul 26 idiv add lineto
  Tt setlinewidth stroke
  grestore
} bd
/QT {
/Y22 exch store
/X22 exch store
/Y21 exch store
/X21 exch store
currentpoint
/Y21 load 2 mul add 3 div exch
/X21 load 2 mul add 3 div exch
/X21 load 2 mul /X22 load add 3 div
/Y21 load 2 mul /Y22 load add 3 div
/X22 load /Y22 load curveto
} bd
/SSPD {
dup length /d exch dict def
{
/v exch def
/k exch def
currentpagedevice k known {
/cpdv currentpagedevice k get def
v cpdv ne {
/upd false def
/nullv v type /nulltype eq def
/nullcpdv cpdv type /nulltype eq def
nullv nullcpdv or
{
/upd true def
} {
/sametype v type cpdv type eq def
sametype {
v type /arraytype eq {
/vlen v length def
/cpdvlen cpdv length def
vlen cpdvlen eq {
0 1 vlen 1 sub {
/i exch def
/obj v i get def
/cpdobj cpdv i get def
obj cpdobj ne {
/upd true def
exit
} if
} for
} {
/upd true def
} ifelse
} {
v type /dicttype eq {
v {
/dv exch def
/dk exch def
/cpddv cpdv dk get def
dv cpddv ne {
/upd true def
exit
} if
} forall
} {
/upd true def
} ifelse
} ifelse
} if
} ifelse
upd true eq {
d k v put
} if
} if
} if
} forall
d length 0 gt {
d setpagedevice
} if
} bd
/RE { % /NewFontName [NewEncodingArray] /FontName RE -
  findfont dup length dict begin
  {
    1 index /FID ne
    {def} {pop pop} ifelse
  } forall
  /Encoding exch def
  /FontName 1 index def
  currentdict definefont pop
  end
} bind def
%%EndResource
%%BeginResource: procset (Apache XML Graphics EPS ProcSet) 1.0 0
%%Version: 1.0 0
%%Copyright: (Copyright 2002-2003 The Apache Software Foundation. License terms: http://www.apache.org/licenses/LICENSE-2.0)
/BeginEPSF { %def
/b4_Inc_state save def         % Save state for cleanup
/dict_count countdictstack def % Count objects on dict stack
/op_count count 1 sub def      % Count objects on operand stack
userdict begin                 % Push userdict on dict stack
/showpage { } def              % Redefine showpage, { } = null proc
0 setgray 0 setlinecap         % Prepare graphics state
1 setlinewidth 0 setlinejoin
10 setmiterlimit [ ] 0 setdash newpath
/languagelevel where           % If level not equal to 1 then
{pop languagelevel             % set strokeadjust and
1 ne                           % overprint to their defaults.
{false setstrokeadjust false setoverprint
} if
} if
} bd
/EndEPSF { %def
count op_count sub {pop} repeat            % Clean up stacks
countdictstack dict_count sub {end} repeat
b4_Inc_state restore
} bd
%%EndResource
%FOPBeginFontDict
%%IncludeResource: font Courier-Bold
%%IncludeResource: font Helvetica
%%IncludeResource: font Courier-BoldOblique
%%IncludeResource: font Courier-Oblique
%%IncludeResource: font Times-Roman
%%IncludeResource: font Helvetica-BoldOblique
%%IncludeResource: font Helvetica-Bold
%%IncludeResource: font Helvetica-Oblique
%%IncludeResource: font Times-BoldItalic
%%IncludeResource: font Courier
%%IncludeResource: font Times-Italic
%%IncludeResource: font Times-Bold
%%IncludeResource: font Symbol
%%IncludeResource: font ZapfDingbats
%FOPEndFontDict
%%BeginResource: encoding WinAnsiEncoding
/WinAnsiEncoding [
/.notdef /.notdef /.notdef /.notdef /.notdef
/.notdef /.notdef /.notdef /.notdef /.notdef
/.notdef /.notdef /.notdef /.notdef /.notdef
/.notdef /.notdef /.notdef /.notdef /.notdef
/.notdef /.notdef /.notdef /.notdef /.notdef
/.notdef /.notdef /.notdef /.notdef /.notdef
/.notdef /.notdef /space /exclam /quotedbl
/numbersign /dollar /percent /ampersand /quotesingle
/parenleft /parenright /asterisk /plus /comma
/hyphen /period /slash /zero /one
/two /three /four /five /six
/seven /eight /nine /colon /semicolon
/less /equal /greater /question /at
/A /B /C /D /E
/F /G /H /I /J
/K /L /M /N /O
/P /Q /R /S /T
/U /V /W /X /Y
/Z /bracketleft /backslash /bracketright /asciicircum
/underscore /quoteleft /a /b /c
/d /e /f /g /h
/i /j /k /l /m
/n /o /p /q /r
/s /t /u /v /w
/x /y /z /braceleft /bar
/braceright /asciitilde /bullet /Euro /bullet
/quotesinglbase /florin /quotedblbase /ellipsis /dagger
/daggerdbl /circumflex /perthousand /Scaron /guilsinglleft
/OE /bullet /Zcaron /bullet /bullet
/quoteleft /quoteright /quotedblleft /quotedblright /bullet
/endash /emdash /asciitilde /trademark /scaron
/guilsinglright /oe /bullet /zcaron /Ydieresis
/space /exclamdown /cent /sterling /currency
/yen /brokenbar /section /dieresis /copyright
/ordfeminine /guillemotleft /logicalnot /sfthyphen /registered
/macron /degree /plusminus /twosuperior /threesuperior
/acute /mu /paragraph /middot /cedilla
/onesuperior /ordmasculine /guillemotright /onequarter /onehalf
/threequarters /questiondown /Agrave /Aacute /Acircumflex
/Atilde /Adieresis /Aring /AE /Ccedilla
/Egrave /Eacute /Ecircumflex /Edieresis /Igrave
/Iacute /Icircumflex /Idieresis /Eth /Ntilde
/Ograve /Oacute /Ocircumflex /Otilde /Odieresis
/multiply /Oslash /Ugrave /Uacute /Ucircumflex
/Udieresis /Yacute /Thorn /germandbls /agrave
/aacute /acircumflex /atilde /adieresis /aring
/ae /ccedilla /egrave /eacute /ecircumflex
/edieresis /igrave /iacute /icircumflex /idieresis
/eth /ntilde /ograve /oacute /ocircumflex
/otilde /odieresis /divide /oslash /ugrave
/uacute /ucircumflex /udieresis /yacute /thorn
/ydieresis
] def
%%EndResource
%FOPBeginFontReencode
/Courier-Bold findfont
dup length dict begin
  {1 index /FID ne {def} {pop pop} ifelse} forall
  /Encoding WinAnsiEncoding def
  currentdict
end
/Courier-Bold exch definefont pop
/Helvetica findfont
dup length dict begin
  {1 index /FID ne {def} {pop pop} ifelse} forall
  /Encoding WinAnsiEncoding def
  currentdict
end
/Helvetica exch definefont pop
/Courier-BoldOblique findfont
dup length dict begin
  {1 index /FID ne {def} {pop pop} ifelse} forall
  /Encoding WinAnsiEncoding def
  currentdict
end
/Courier-BoldOblique exch definefont pop
/Courier-Oblique findfont
dup length dict begin
  {1 index /FID ne {def} {pop pop} ifelse} forall
  /Encoding WinAnsiEncoding def
  currentdict
end
/Courier-Oblique exch definefont pop
/Times-Roman findfont
dup length dict begin
  {1 index /FID ne {def} {pop pop} ifelse} forall
  /Encoding WinAnsiEncoding def
  currentdict
end
/Times-Roman exch definefont pop
/Helvetica-BoldOblique findfont
dup length dict begin
  {1 index /FID ne {def} {pop pop} ifelse} forall
  /Encoding WinAnsiEncoding def
  currentdict
end
/Helvetica-BoldOblique exch definefont pop
/Helvetica-Bold findfont
dup length dict begin
  {1 index /FID ne {def} {pop pop} ifelse} forall
  /Encoding WinAnsiEncoding def
  currentdict
end
/Helvetica-Bold exch definefont pop
/Helvetica-Oblique findfont
dup length dict begin
  {1 index /FID ne {def} {pop pop} ifelse} forall
  /Encoding WinAnsiEncoding def
  currentdict
end
/Helvetica-Oblique exch definefont pop
/Times-BoldItalic findfont
dup length dict begin
  {1 index /FID ne {def} {pop pop} ifelse} forall
  /Encoding WinAnsiEncoding def
  currentdict
end
/Times-BoldItalic exch definefont pop
/Courier findfont
dup length dict begin
  {1 index /FID ne {def} {pop pop} ifelse} forall
  /Encoding WinAnsiEncoding def
  currentdict
end
/Courier exch definefont pop
/Times-Italic findfont
dup length dict begin
  {1 index /FID ne {def} {pop pop} ifelse} forall
  /Encoding WinAnsiEncoding def
  currentdict
end
/Times-Italic exch definefont pop
/Times-Bold findfont
dup length dict begin
  {1 index /FID ne {def} {pop pop} ifelse} forall
  /Encoding WinAnsiEncoding def
  currentdict
end
/Times-Bold exch definefont pop
%FOPEndFontReencode
%%EndProlog
%%Page: 1 1
%%PageBoundingBox: 0 0 748 546
%%BeginPageSetup
[1 0 0 -1 0 546] CT
%%EndPageSetup
GS
[0.75789 0 0 0.75789 0 0.3158] CT
N
0 0 M
987 0 L
987 720 L
0 720 L
0 0 L
cp
clip
1 GC
N
0 0 987 720 re
f
GR
GS
[0.75789 0 0 0.75789 0 0.3158] CT
1 GC
N
0 0 987 720 re
f
GR
GS
[0.75789 0 0 0.75789 0 0.3158] CT
1 GC
N
128 641 M
893 641 L
893 54 L
128 54 L
cp
f
GR
GS
[0.75789 0 0 0.75789 0 0.3158] CT
0.149 GC
2 setlinecap
1 LJ
0.66 LW
N
128 641 M
893 641 L
S
GR
GS
[0.75789 0 0 0.75789 0 0.3158] CT
0.149 GC
2 setlinecap
1 LJ
0.66 LW
N
128 54 M
893 54 L
S
GR
GS
[0.75789 0 0 0.75789 0 0.3158] CT
0.149 GC
2 setlinecap
1 LJ
0.66 LW
N
128 641 M
128 633.35 L
S
GR
GS
[0.75789 0 0 0.75789 0 0.3158] CT
0.149 GC
2 setlinecap
1 LJ
0.66 LW
N
204.5 641 M
204.5 633.35 L
S
GR
GS
[0.75789 0 0 0.75789 0 0.3158] CT
0.149 GC
2 setlinecap
1 LJ
0.66 LW
N
281 641 M
281 633.35 L
S
GR
GS
[0.75789 0 0 0.75789 0 0.3158] CT
0.149 GC
2 setlinecap
1 LJ
0.66 LW
N
357.5 641 M
357.5 633.35 L
S
GR
GS
[0.75789 0 0 0.75789 0 0.3158] CT
0.149 GC
2 setlinecap
1 LJ
0.66 LW
N
434 641 M
434 633.35 L
S
GR
GS
[0.75789 0 0 0.75789 0 0.3158] CT
0.149 GC
2 setlinecap
1 LJ
0.66 LW
N
510.5 641 M
510.5 633.35 L
S
GR
GS
[0.75789 0 0 0.75789 0 0.3158] CT
0.149 GC
2 setlinecap
1 LJ
0.66 LW
N
587 641 M
587 633.35 L
S
GR
GS
[0.75789 0 0 0.75789 0 0.3158] CT
0.149 GC
2 setlinecap
1 LJ
0.66 LW
N
663.5 641 M
663.5 633.35 L
S
GR
GS
[0.75789 0 0 0.75789 0 0.3158] CT
0.149 GC
2 setlinecap
1 LJ
0.66 LW
N
740 641 M
740 633.35 L
S
GR
GS
[0.75789 0 0 0.75789 0 0.3158] CT
0.149 GC
2 setlinecap
1 LJ
0.66 LW
N
816.5 641 M
816.5 633.35 L
S
GR
GS
[0.75789 0 0 0.75789 0 0.3158] CT
0.149 GC
2 setlinecap
1 LJ
0.66 LW
N
893 641 M
893 633.35 L
S
GR
GS
[0.75789 0 0 0.75789 0 0.3158] CT
0.149 GC
2 setlinecap
1 LJ
0.66 LW
N
128 54 M
128 61.65 L
S
GR
GS
[0.75789 0 0 0.75789 0 0.3158] CT
0.149 GC
2 setlinecap
1 LJ
0.66 LW
N
204.5 54 M
204.5 61.65 L
S
GR
GS
[0.75789 0 0 0.75789 0 0.3158] CT
0.149 GC
2 setlinecap
1 LJ
0.66 LW
N
281 54 M
281 61.65 L
S
GR
GS
[0.75789 0 0 0.75789 0 0.3158] CT
0.149 GC
2 setlinecap
1 LJ
0.66 LW
N
357.5 54 M
357.5 61.65 L
S
GR
GS
[0.75789 0 0 0.75789 0 0.3158] CT
0.149 GC
2 setlinecap
1 LJ
0.66 LW
N
434 54 M
434 61.65 L
S
GR
GS
[0.75789 0 0 0.75789 0 0.3158] CT
0.149 GC
2 setlinecap
1 LJ
0.66 LW
N
510.5 54 M
510.5 61.65 L
S
GR
GS
[0.75789 0 0 0.75789 0 0.3158] CT
0.149 GC
2 setlinecap
1 LJ
0.66 LW
N
587 54 M
587 61.65 L
S
GR
GS
[0.75789 0 0 0.75789 0 0.3158] CT
0.149 GC
2 setlinecap
1 LJ
0.66 LW
N
663.5 54 M
663.5 61.65 L
S
GR
GS
[0.75789 0 0 0.75789 0 0.3158] CT
0.149 GC
2 setlinecap
1 LJ
0.66 LW
N
740 54 M
740 61.65 L
S
GR
GS
[0.75789 0 0 0.75789 0 0.3158] CT
0.149 GC
2 setlinecap
1 LJ
0.66 LW
N
816.5 54 M
816.5 61.65 L
S
GR
GS
[0.75789 0 0 0.75789 0 0.3158] CT
0.149 GC
2 setlinecap
1 LJ
0.66 LW
N
893 54 M
893 61.65 L
S
GR
GS
[0.75789 0 0 0.75789 97.01053 490.12631] CT
0.149 GC
/Helvetica 13.194 F
GS
[1 0 0 1 0 0] CT
-4.5 13 moveto 
1 -1 scale
(0) t 
GR
GR
GS
[0.75789 0 0 0.75789 154.98948 490.12631] CT
0.149 GC
/Helvetica 13.194 F
GS
[1 0 0 1 0 0] CT
-8.5 13 moveto 
1 -1 scale
(50) t 
GR
GR
GS
[0.75789 0 0 0.75789 212.96842 490.12631] CT
0.149 GC
/Helvetica 13.194 F
GS
[1 0 0 1 0 0] CT
-12.5 13 moveto 
1 -1 scale
(100) t 
GR
GR
GS
[0.75789 0 0 0.75789 270.94737 490.12631] CT
0.149 GC
/Helvetica 13.194 F
GS
[1 0 0 1 0 0] CT
-12.5 13 moveto 
1 -1 scale
(150) t 
GR
GR
GS
[0.75789 0 0 0.75789 328.92632 490.12631] CT
0.149 GC
/Helvetica 13.194 F
GS
[1 0 0 1 0 0] CT
-12.5 13 moveto 
1 -1 scale
(200) t 
GR
GR
GS
[0.75789 0 0 0.75789 386.90527 490.12631] CT
0.149 GC
/Helvetica 13.194 F
GS
[1 0 0 1 0 0] CT
-12.5 13 moveto 
1 -1 scale
(250) t 
GR
GR
GS
[0.75789 0 0 0.75789 444.88422 490.12631] CT
0.149 GC
/Helvetica 13.194 F
GS
[1 0 0 1 0 0] CT
-12.5 13 moveto 
1 -1 scale
(300) t 
GR
GR
GS
[0.75789 0 0 0.75789 502.86316 490.12631] CT
0.149 GC
/Helvetica 13.194 F
GS
[1 0 0 1 0 0] CT
-12.5 13 moveto 
1 -1 scale
(350) t 
GR
GR
GS
[0.75789 0 0 0.75789 560.84211 490.12631] CT
0.149 GC
/Helvetica 13.194 F
GS
[1 0 0 1 0 0] CT
-12.5 13 moveto 
1 -1 scale
(400) t 
GR
GR
GS
[0.75789 0 0 0.75789 618.82106 490.12631] CT
0.149 GC
/Helvetica 13.194 F
GS
[1 0 0 1 0 0] CT
-12.5 13 moveto 
1 -1 scale
(450) t 
GR
GR
GS
[0.75789 0 0 0.75789 676.80001 490.12631] CT
0.149 GC
/Helvetica 13.194 F
GS
[1 0 0 1 0 0] CT
-12.5 13 moveto 
1 -1 scale
(500) t 
GR
GR
GS
[0.75789 0 0 0.75789 386.90555 504.01053] CT
0.149 GC
/Helvetica 14.514 F
GS
[1 0 0 1 0 0] CT
-38.5 14 moveto 
1 -1 scale
(w=omega) t 
GR
GR
GS
[0.75789 0 0 0.75789 0 0.3158] CT
0.149 GC
2 setlinecap
1 LJ
0.66 LW
N
128 641 M
128 54 L
S
GR
GS
[0.75789 0 0 0.75789 0 0.3158] CT
0.149 GC
2 setlinecap
1 LJ
0.66 LW
N
893 641 M
893 54 L
S
GR
GS
[0.75789 0 0 0.75789 0 0.3158] CT
0.149 GC
2 setlinecap
1 LJ
0.66 LW
N
128 641 M
135.65 641 L
S
GR
GS
[0.75789 0 0 0.75789 0 0.3158] CT
0.149 GC
2 setlinecap
1 LJ
0.66 LW
N
128 557.143 M
135.65 557.143 L
S
GR
GS
[0.75789 0 0 0.75789 0 0.3158] CT
0.149 GC
2 setlinecap
1 LJ
0.66 LW
N
128 473.286 M
135.65 473.286 L
S
GR
GS
[0.75789 0 0 0.75789 0 0.3158] CT
0.149 GC
2 setlinecap
1 LJ
0.66 LW
N
128 389.429 M
135.65 389.429 L
S
GR
GS
[0.75789 0 0 0.75789 0 0.3158] CT
0.149 GC
2 setlinecap
1 LJ
0.66 LW
N
128 305.571 M
135.65 305.571 L
S
GR
GS
[0.75789 0 0 0.75789 0 0.3158] CT
0.149 GC
2 setlinecap
1 LJ
0.66 LW
N
128 221.714 M
135.65 221.714 L
S
GR
GS
[0.75789 0 0 0.75789 0 0.3158] CT
0.149 GC
2 setlinecap
1 LJ
0.66 LW
N
128 137.857 M
135.65 137.857 L
S
GR
GS
[0.75789 0 0 0.75789 0 0.3158] CT
0.149 GC
2 setlinecap
1 LJ
0.66 LW
N
128 54 M
135.65 54 L
S
GR
GS
[0.75789 0 0 0.75789 0 0.3158] CT
0.149 GC
2 setlinecap
1 LJ
0.66 LW
N
893 641 M
885.35 641 L
S
GR
GS
[0.75789 0 0 0.75789 0 0.3158] CT
0.149 GC
2 setlinecap
1 LJ
0.66 LW
N
893 557.143 M
885.35 557.143 L
S
GR
GS
[0.75789 0 0 0.75789 0 0.3158] CT
0.149 GC
2 setlinecap
1 LJ
0.66 LW
N
893 473.286 M
885.35 473.286 L
S
GR
GS
[0.75789 0 0 0.75789 0 0.3158] CT
0.149 GC
2 setlinecap
1 LJ
0.66 LW
N
893 389.429 M
885.35 389.429 L
S
GR
GS
[0.75789 0 0 0.75789 0 0.3158] CT
0.149 GC
2 setlinecap
1 LJ
0.66 LW
N
893 305.571 M
885.35 305.571 L
S
GR
GS
[0.75789 0 0 0.75789 0 0.3158] CT
0.149 GC
2 setlinecap
1 LJ
0.66 LW
N
893 221.714 M
885.35 221.714 L
S
GR
GS
[0.75789 0 0 0.75789 0 0.3158] CT
0.149 GC
2 setlinecap
1 LJ
0.66 LW
N
893 137.857 M
885.35 137.857 L
S
GR
GS
[0.75789 0 0 0.75789 0 0.3158] CT
0.149 GC
2 setlinecap
1 LJ
0.66 LW
N
893 54 M
885.35 54 L
S
GR
GS
[0.75789 0 0 0.75789 93.01053 486.12632] CT
0.149 GC
/Helvetica 13.194 F
GS
[1 0 0 1 0 0] CT
-9 4.5 moveto 
1 -1 scale
(0) t 
GR
GR
GS
[0.75789 0 0 0.75789 93.01053 422.57145] CT
0.149 GC
/Helvetica 13.194 F
GS
[1 0 0 1 0 0] CT
-21 4.5 moveto 
1 -1 scale
(0.2) t 
GR
GR
GS
[0.75789 0 0 0.75789 93.01053 359.01654] CT
0.149 GC
/Helvetica 13.194 F
GS
[1 0 0 1 0 0] CT
-21 4.5 moveto 
1 -1 scale
(0.4) t 
GR
GR
GS
[0.75789 0 0 0.75789 93.01053 295.46165] CT
0.149 GC
/Helvetica 13.194 F
GS
[1 0 0 1 0 0] CT
-21 4.5 moveto 
1 -1 scale
(0.6) t 
GR
GR
GS
[0.75789 0 0 0.75789 93.01053 231.90676] CT
0.149 GC
/Helvetica 13.194 F
GS
[1 0 0 1 0 0] CT
-21 4.5 moveto 
1 -1 scale
(0.8) t 
GR
GR
GS
[0.75789 0 0 0.75789 93.01053 168.35188] CT
0.149 GC
/Helvetica 13.194 F
GS
[1 0 0 1 0 0] CT
-9 4.5 moveto 
1 -1 scale
(1) t 
GR
GR
GS
[0.75789 0 0 0.75789 93.01053 104.79698] CT
0.149 GC
/Helvetica 13.194 F
GS
[1 0 0 1 0 0] CT
-21 4.5 moveto 
1 -1 scale
(1.2) t 
GR
GR
GS
[0.75789 0 0 0.75789 93.01053 41.24212] CT
0.149 GC
/Helvetica 13.194 F
GS
[1 0 0 1 0 0] CT
-21 4.5 moveto 
1 -1 scale
(1.4) t 
GR
GR
GS
[0 -0.75789 0.75789 0 71.24211 292.10527] CT
0.149 GC
/Helvetica 14.514 F
GS
[1 0 0 1 0 0] CT
0 0 moveto 
1 -1 scale
(error * w) t 
GR
GR
GS
[0 -0.75789 0.75789 0 65.93684 241.32632] CT
0.149 GC
/Helvetica 11.611 F
GS
[1 0 0 1 0 0] CT
0 0 moveto 
1 -1 scale
(3) t 
GR
GR
GS
[0.75789 0 0 0.75789 321.34737 35.93685] CT
/Helvetica-Bold 14.514 F
GS
[1 0 0 1 0 0] CT
0 0 moveto 
1 -1 scale
(Error scaled with w) t 
GR
GR
GS
[0.75789 0 0 0.75789 445.64211 30.63159] CT
/Helvetica-Bold 11.611 F
GS
[1 0 0 1 0 0] CT
0 0 moveto 
1 -1 scale
(3) t 
GR
GR
GS
[0.75789 0 0 0.75789 0 0.3158] CT
0 0.447 0.741 RC
1 LJ
0.66 LW
N
129.53 635.996 M
134.12 504.285 L
138.71 351.854 L
143.3 274.506 L
147.89 207.992 L
152.48 179.92 L
157.07 167.239 L
161.66 143.45 L
166.25 154.593 L
170.84 133.822 L
175.43 145.401 L
180.02 137.489 L
184.61 136.096 L
189.2 144.762 L
193.79 130.275 L
198.38 148.283 L
202.97 131.082 L
207.56 145.247 L
212.15 137.824 L
216.74 138.24 L
221.33 146.065 L
225.92 132.654 L
230.51 150.351 L
235.1 132.661 L
239.69 148 L
244.28 138.554 L
248.87 141.082 L
253.46 146.626 L
258.05 134.752 L
262.64 151.538 L
267.23 133.529 L
271.82 150.036 L
276.41 138.408 L
281 143.407 L
285.59 146.295 L
290.18 136.462 L
294.77 151.937 L
299.36 134.038 L
303.95 151.491 L
308.54 137.845 L
313.13 145.4 L
317.72 145.458 L
322.31 138.036 L
326.9 151.801 L
331.49 134.478 L
336.08 152.518 L
340.67 137.144 L
345.26 147.175 L
349.85 144.339 L
354.44 139.593 L
359.03 151.276 L
363.62 134.992 L
368.21 153.188 L
372.8 136.46 L
377.39 148.769 L
381.98 143.075 L
386.57 141.177 L
391.16 150.451 L
395.75 135.649 L
400.34 153.536 L
404.93 135.883 L
409.52 150.182 L
414.11 141.756 L
418.7 142.791 L
423.29 149.39 L
427.88 136.476 L
432.47 153.581 L
437.06 135.47 L
441.65 151.401 L
446.24 140.452 L
450.83 144.415 L
455.42 148.148 L
460.01 137.48 L
464.6 153.339 L
469.19 135.258 L
473.78 152.404 L
478.37 139.22 L
482.96 146.023 L
487.55 146.774 L
492.14 138.65 L
496.73 152.828 L
501.32 135.267 L
505.91 153.173 L
510.5 138.107 L
515.09 147.578 L
519.68 145.318 L
524.27 139.967 L
528.86 152.069 L
533.45 135.509 L
538.04 153.689 L
542.63 137.151 L
547.22 149.043 L
551.81 143.827 L
556.4 141.401 L
560.99 151.09 L
565.58 135.986 L
570.17 153.942 L
574.76 136.386 L
579.35 150.38 L
583.94 142.348 L
588.53 142.92 L
593.12 149.921 L
597.71 136.69 L
602.3 153.927 L
606.89 135.837 L
611.48 151.555 L
616.07 140.925 L
620.66 144.485 L
625.25 148.599 L
629.84 137.606 L
634.43 153.646 L
639.02 135.522 L
643.61 152.534 L
648.2 139.6 L
652.79 146.055 L
657.38 147.164 L
661.97 138.714 L
666.56 153.107 L
671.15 135.452 L
675.74 153.291 L
680.33 138.412 L
684.92 147.588 L
689.51 145.658 L
694.1 139.986 L
698.69 152.329 L
703.28 135.632 L
707.87 153.803 L
712.46 137.395 L
717.05 149.043 L
721.64 144.125 L
726.23 141.389 L
730.82 151.334 L
735.41 136.059 L
740 154.058 L
744.59 136.577 L
749.18 150.378 L
753.77 142.608 L
758.36 142.886 L
762.95 150.153 L
767.54 136.723 L
772.13 154.047 L
776.72 135.982 L
781.31 151.555 L
785.9 141.151 L
790.49 144.437 L
795.08 148.819 L
799.67 137.607 L
804.26 153.772 L
808.85 135.627 L
813.44 152.542 L
818.03 139.795 L
822.62 146 L
827.21 147.372 L
831.8 138.689 L
836.39 153.24 L
840.98 135.522 L
845.57 153.309 L
850.16 138.577 L
854.75 147.532 L
859.34 145.854 L
863.93 139.942 L
868.52 152.468 L
873.11 135.671 L
877.7 153.834 L
882.29 137.532 L
886.88 148.989 L
891.47 144.307 L
S
GR
GS
[0.75789 0 0 0.75789 0 0.3158] CT
0.851 0.325 0.098 RC
1 LJ
0.66 LW
N
129.53 638.288 M
134.12 549.058 L
138.71 436.208 L
143.3 362.784 L
147.89 316.36 L
152.48 290.609 L
157.07 276.618 L
161.66 266.382 L
166.25 264.073 L
170.84 259.399 L
175.43 259.975 L
180.02 258.769 L
184.61 258.566 L
189.2 260.076 L
193.79 258.472 L
198.38 261.289 L
202.97 259.455 L
207.56 261.699 L
212.15 261.18 L
216.74 261.529 L
221.33 262.971 L
225.92 261.458 L
230.51 264.111 L
235.1 262.04 L
239.69 264.288 L
244.28 263.31 L
248.87 263.794 L
253.46 264.766 L
258.05 263.318 L
262.64 265.721 L
267.23 263.477 L
271.82 265.783 L
276.41 264.403 L
281 265.138 L
285.59 265.669 L
290.18 264.422 L
294.77 266.585 L
299.36 264.287 L
303.95 266.673 L
308.54 264.964 L
313.13 266.003 L
317.72 266.112 L
322.31 265.15 L
326.9 267.053 L
331.49 264.794 L
336.08 267.234 L
340.67 265.261 L
345.26 266.612 L
349.85 266.31 L
354.44 265.686 L
359.03 267.293 L
363.62 265.15 L
368.21 267.599 L
372.8 265.423 L
377.39 267.07 L
381.98 266.371 L
386.57 266.117 L
391.16 267.393 L
395.75 265.433 L
400.34 267.834 L
404.93 265.52 L
409.52 267.427 L
414.11 266.354 L
418.7 266.486 L
423.29 267.4 L
427.88 265.682 L
432.47 267.975 L
437.06 265.589 L
441.65 267.711 L
446.24 266.294 L
450.83 266.814 L
455.42 267.342 L
460.01 265.918 L
464.6 268.042 L
469.19 265.652 L
473.78 267.935 L
478.37 266.213 L
482.96 267.111 L
487.55 267.24 L
492.14 266.151 L
496.73 268.051 L
501.32 265.722 L
505.91 268.106 L
510.5 266.128 L
515.09 267.381 L
519.68 267.108 L
524.27 266.386 L
528.86 268.009 L
533.45 265.808 L
538.04 268.228 L
542.63 266.05 L
547.22 267.626 L
551.81 266.958 L
556.4 266.624 L
560.99 267.927 L
565.58 265.915 L
570.17 268.305 L
574.76 265.986 L
579.35 267.843 L
583.94 266.799 L
588.53 266.864 L
593.12 267.81 L
597.71 266.044 L
602.3 268.339 L
606.89 265.944 L
611.48 268.031 L
616.07 266.639 L
620.66 267.103 L
625.25 267.665 L
629.84 266.195 L
634.43 268.331 L
639.02 265.927 L
643.61 268.187 L
648.2 266.487 L
652.79 267.337 L
657.38 267.5 L
661.97 266.367 L
666.56 268.285 L
671.15 265.939 L
675.74 268.309 L
680.33 266.348 L
684.92 267.561 L
689.51 267.321 L
694.1 266.556 L
698.69 268.203 L
703.28 265.981 L
707.87 268.396 L
712.46 266.228 L
717.05 267.771 L
721.64 267.134 L
726.23 266.76 L
730.82 268.089 L
735.41 266.054 L
740 268.445 L
744.59 266.132 L
749.18 267.963 L
753.77 266.947 L
758.36 266.974 L
762.95 267.948 L
767.54 266.156 L
772.13 268.458 L
776.72 266.064 L
781.31 268.131 L
785.9 266.764 L
790.49 267.193 L
795.08 267.785 L
799.67 266.286 L
804.26 268.435 L
808.85 266.027 L
813.44 268.272 L
818.03 266.593 L
822.62 267.411 L
827.21 267.604 L
831.8 266.441 L
836.39 268.376 L
840.98 266.022 L
845.57 268.383 L
850.16 266.439 L
854.75 267.624 L
859.34 267.412 L
863.93 266.617 L
868.52 268.284 L
873.11 266.049 L
877.7 268.461 L
882.29 266.306 L
886.88 267.824 L
891.47 267.215 L
S
GR
GS
[0.75789 0 0 0.75789 0 0.3158] CT
0.929 0.694 0.125 RC
1 LJ
0.66 LW
N
129.53 640.847 M
134.12 629.211 L
138.71 608.252 L
143.3 588.751 L
147.89 584.475 L
152.48 577.36 L
157.07 574.561 L
161.66 578.916 L
166.25 573.748 L
170.84 581.031 L
175.43 578.116 L
180.02 581.354 L
184.61 584.13 L
189.2 581.611 L
193.79 588.749 L
198.38 583.476 L
202.97 590.363 L
207.56 587.206 L
212.15 589.646 L
216.74 591.686 L
221.33 588.661 L
225.92 595.016 L
230.51 589.125 L
235.1 595.77 L
239.69 591.537 L
244.28 594.316 L
248.87 595.08 L
253.46 592.476 L
258.05 598 L
262.64 591.987 L
267.23 598.675 L
271.82 593.54 L
276.41 597.064 L
281 596.556 L
285.59 594.777 L
290.18 599.415 L
294.77 593.63 L
299.36 600.334 L
303.95 594.53 L
308.54 598.865 L
313.13 597.146 L
317.72 596.37 L
322.31 600.03 L
326.9 594.726 L
331.49 601.309 L
336.08 595.063 L
340.67 600.147 L
345.26 597.304 L
349.85 597.601 L
354.44 600.2 L
359.03 595.571 L
363.62 601.859 L
368.21 595.393 L
372.8 601.102 L
377.39 597.248 L
381.98 598.627 L
386.57 600.104 L
391.16 596.3 L
395.75 602.117 L
400.34 595.644 L
404.93 601.821 L
409.52 597.091 L
414.11 599.523 L
418.7 599.845 L
423.29 596.982 L
427.88 602.159 L
432.47 595.883 L
437.06 602.352 L
441.65 596.902 L
446.24 600.32 L
450.83 599.488 L
455.42 597.649 L
460.01 602.034 L
464.6 596.144 L
469.19 602.718 L
473.78 596.722 L
478.37 601.031 L
482.96 599.077 L
487.55 598.314 L
492.14 601.78 L
496.73 596.449 L
501.32 602.935 L
505.91 596.577 L
510.5 601.657 L
515.09 598.647 L
519.68 598.978 L
524.27 601.426 L
528.86 596.805 L
533.45 603.014 L
538.04 596.487 L
542.63 602.193 L
547.22 598.222 L
551.81 599.639 L
556.4 600.997 L
560.99 597.217 L
565.58 602.965 L
570.17 596.464 L
574.76 602.634 L
579.35 597.824 L
583.94 600.286 L
588.53 600.517 L
593.12 597.682 L
597.71 602.799 L
602.3 596.513 L
606.89 602.971 L
611.48 597.469 L
616.07 600.909 L
620.66 600.008 L
625.25 598.194 L
629.84 602.53 L
634.43 596.641 L
639.02 603.2 L
643.61 597.171 L
648.2 601.493 L
652.79 599.49 L
657.38 598.746 L
661.97 602.173 L
666.56 596.846 L
671.15 603.317 L
675.74 596.94 L
680.33 602.025 L
684.92 598.982 L
689.51 599.326 L
694.1 601.743 L
698.69 597.128 L
703.28 603.322 L
707.87 596.785 L
712.46 602.491 L
717.05 598.498 L
721.64 599.921 L
726.23 601.259 L
730.82 597.481 L
735.41 603.218 L
740 596.71 L
744.59 602.877 L
749.18 598.055 L
753.77 600.518 L
758.36 600.737 L
762.95 597.9 L
767.54 603.01 L
772.13 596.72 L
776.72 603.173 L
781.31 597.665 L
785.9 601.1 L
790.49 600.196 L
795.08 598.376 L
799.67 602.71 L
804.26 596.814 L
808.85 603.37 L
813.44 597.338 L
818.03 601.653 L
822.62 599.652 L
827.21 598.897 L
831.8 602.328 L
836.39 596.992 L
840.98 603.462 L
845.57 597.084 L
850.16 602.159 L
854.75 599.122 L
859.34 599.452 L
863.93 601.879 L
868.52 597.251 L
873.11 603.448 L
877.7 596.909 L
882.29 602.605 L
886.88 598.622 L
891.47 600.027 L
S
GR
GS
[0.75789 0 0 0.75789 0 0.3158] CT
1 GC
N
700 428 M
700 373 L
875 373 L
875 428 L
cp
f
GR
GS
[0.75789 0 0 0.75789 565.91585 290.21053] CT
/Helvetica 11.875 F
GS
[1 0 0 1 0 0] CT
0 4.5 moveto 
1 -1 scale
(polynomial degree 3) t 
GR
GR
GS
[0.75789 0 0 0.75789 0 0.3158] CT
0 0.447 0.741 RC
1 LJ
0.66 LW
N
704.01 382.5 M
743.687 382.5 L
S
GR
GS
[0.75789 0 0 0.75789 566.14738 305.74737] CT
/Helvetica 11.875 F
GS
[1 0 0 1 0 0] CT
0 0 moveto 
1 -1 scale
(sigma) t 
GR
GR
GS
[0.75789 0 0 0.75789 594.18948 309.53684] CT
/Helvetica 9.5 F
GS
[1 0 0 1 0 0] CT
0 0 moveto 
1 -1 scale
(k) t 
GR
GR
GS
[0.75789 0 0 0.75789 598.73685 305.74737] CT
/Helvetica 11.875 F
GS
[1 0 0 1 0 0] CT
0 0 moveto 
1 -1 scale
( degree 1) t 
GR
GR
GS
[0.75789 0 0 0.75789 0 0.3158] CT
0.851 0.325 0.098 RC
1 LJ
0.66 LW
N
704.01 400.5 M
743.687 400.5 L
S
GR
GS
[0.75789 0 0 0.75789 565.91585 317.49474] CT
/Helvetica 11.875 F
GS
[1 0 0 1 0 0] CT
0 4.5 moveto 
1 -1 scale
(polynomial degree 4) t 
GR
GR
GS
[0.75789 0 0 0.75789 0 0.3158] CT
0.929 0.694 0.125 RC
1 LJ
0.66 LW
N
704.01 418.5 M
743.687 418.5 L
S
GR
GS
[0.75789 0 0 0.75789 0 0.3158] CT
0.149 GC
10.0 ML
0.66 LW
N
700 428 M
700 373 L
875 373 L
875 428 L
cp
S
GR
%%Trailer
%%Pages: 1
%%EOF
