%!PS-Adobe-3.0 EPSF-3.0
%%Creator: (MATLAB, The Mathworks, Inc. Version 9.2.0.538062 \(R2017a\). Operating System: Linux)
%%Title: (/afs/kth.se/home/i/z/izzo/Documents/Approximation Theory/Project/gitshared/project/latex/plot12.eps)
%%CreationDate: 2017-10-24T15:42:03
%%Pages: (atend)
%%BoundingBox: 0 0 748 539
%%LanguageLevel: 3
%%EndComments
%%BeginProlog
%%BeginResource: procset (Apache XML Graphics Std ProcSet) 1.2 0
%%Version: 1.2 0
%%Copyright: (Copyright 2001-2003,2010 The Apache Software Foundation. License terms: http://www.apache.org/licenses/LICENSE-2.0)
/bd{bind def}bind def
/ld{load def}bd
/GR/grestore ld
/M/moveto ld
/LJ/setlinejoin ld
/C/curveto ld
/f/fill ld
/LW/setlinewidth ld
/GC/setgray ld
/t/show ld
/N/newpath ld
/CT/concat ld
/cp/closepath ld
/S/stroke ld
/L/lineto ld
/CC/setcmykcolor ld
/A/ashow ld
/GS/gsave ld
/RC/setrgbcolor ld
/RM/rmoveto ld
/ML/setmiterlimit ld
/re {4 2 roll M
1 index 0 rlineto
0 exch rlineto
neg 0 rlineto
cp } bd
/_ctm matrix def
/_tm matrix def
/BT { _ctm currentmatrix pop matrix _tm copy pop 0 0 moveto } bd
/ET { _ctm setmatrix } bd
/iTm { _ctm setmatrix _tm concat } bd
/Tm { _tm astore pop iTm 0 0 moveto } bd
/ux 0.0 def
/uy 0.0 def
/F {
  /Tp exch def
  /Tf exch def
  Tf findfont Tp scalefont setfont
  /cf Tf def  /cs Tp def
} bd
/ULS {currentpoint /uy exch def /ux exch def} bd
/ULE {
  /Tcx currentpoint pop def
  gsave
  newpath
  cf findfont cs scalefont dup
  /FontMatrix get 0 get /Ts exch def /FontInfo get dup
  /UnderlinePosition get Ts mul /To exch def
  /UnderlineThickness get Ts mul /Tt exch def
  ux uy To add moveto  Tcx uy To add lineto
  Tt setlinewidth stroke
  grestore
} bd
/OLE {
  /Tcx currentpoint pop def
  gsave
  newpath
  cf findfont cs scalefont dup
  /FontMatrix get 0 get /Ts exch def /FontInfo get dup
  /UnderlinePosition get Ts mul /To exch def
  /UnderlineThickness get Ts mul /Tt exch def
  ux uy To add cs add moveto Tcx uy To add cs add lineto
  Tt setlinewidth stroke
  grestore
} bd
/SOE {
  /Tcx currentpoint pop def
  gsave
  newpath
  cf findfont cs scalefont dup
  /FontMatrix get 0 get /Ts exch def /FontInfo get dup
  /UnderlinePosition get Ts mul /To exch def
  /UnderlineThickness get Ts mul /Tt exch def
  ux uy To add cs 10 mul 26 idiv add moveto Tcx uy To add cs 10 mul 26 idiv add lineto
  Tt setlinewidth stroke
  grestore
} bd
/QT {
/Y22 exch store
/X22 exch store
/Y21 exch store
/X21 exch store
currentpoint
/Y21 load 2 mul add 3 div exch
/X21 load 2 mul add 3 div exch
/X21 load 2 mul /X22 load add 3 div
/Y21 load 2 mul /Y22 load add 3 div
/X22 load /Y22 load curveto
} bd
/SSPD {
dup length /d exch dict def
{
/v exch def
/k exch def
currentpagedevice k known {
/cpdv currentpagedevice k get def
v cpdv ne {
/upd false def
/nullv v type /nulltype eq def
/nullcpdv cpdv type /nulltype eq def
nullv nullcpdv or
{
/upd true def
} {
/sametype v type cpdv type eq def
sametype {
v type /arraytype eq {
/vlen v length def
/cpdvlen cpdv length def
vlen cpdvlen eq {
0 1 vlen 1 sub {
/i exch def
/obj v i get def
/cpdobj cpdv i get def
obj cpdobj ne {
/upd true def
exit
} if
} for
} {
/upd true def
} ifelse
} {
v type /dicttype eq {
v {
/dv exch def
/dk exch def
/cpddv cpdv dk get def
dv cpddv ne {
/upd true def
exit
} if
} forall
} {
/upd true def
} ifelse
} ifelse
} if
} ifelse
upd true eq {
d k v put
} if
} if
} if
} forall
d length 0 gt {
d setpagedevice
} if
} bd
/RE { % /NewFontName [NewEncodingArray] /FontName RE -
  findfont dup length dict begin
  {
    1 index /FID ne
    {def} {pop pop} ifelse
  } forall
  /Encoding exch def
  /FontName 1 index def
  currentdict definefont pop
  end
} bind def
%%EndResource
%%BeginResource: procset (Apache XML Graphics EPS ProcSet) 1.0 0
%%Version: 1.0 0
%%Copyright: (Copyright 2002-2003 The Apache Software Foundation. License terms: http://www.apache.org/licenses/LICENSE-2.0)
/BeginEPSF { %def
/b4_Inc_state save def         % Save state for cleanup
/dict_count countdictstack def % Count objects on dict stack
/op_count count 1 sub def      % Count objects on operand stack
userdict begin                 % Push userdict on dict stack
/showpage { } def              % Redefine showpage, { } = null proc
0 setgray 0 setlinecap         % Prepare graphics state
1 setlinewidth 0 setlinejoin
10 setmiterlimit [ ] 0 setdash newpath
/languagelevel where           % If level not equal to 1 then
{pop languagelevel             % set strokeadjust and
1 ne                           % overprint to their defaults.
{false setstrokeadjust false setoverprint
} if
} if
} bd
/EndEPSF { %def
count op_count sub {pop} repeat            % Clean up stacks
countdictstack dict_count sub {end} repeat
b4_Inc_state restore
} bd
%%EndResource
%FOPBeginFontDict
%%IncludeResource: font Courier-Bold
%%IncludeResource: font Helvetica
%%IncludeResource: font Courier-BoldOblique
%%IncludeResource: font Courier-Oblique
%%IncludeResource: font Times-Roman
%%IncludeResource: font Helvetica-BoldOblique
%%IncludeResource: font Helvetica-Bold
%%IncludeResource: font Helvetica-Oblique
%%IncludeResource: font Times-BoldItalic
%%IncludeResource: font Courier
%%IncludeResource: font Times-Italic
%%IncludeResource: font Times-Bold
%%IncludeResource: font Symbol
%%IncludeResource: font ZapfDingbats
%FOPEndFontDict
%%BeginResource: encoding WinAnsiEncoding
/WinAnsiEncoding [
/.notdef /.notdef /.notdef /.notdef /.notdef
/.notdef /.notdef /.notdef /.notdef /.notdef
/.notdef /.notdef /.notdef /.notdef /.notdef
/.notdef /.notdef /.notdef /.notdef /.notdef
/.notdef /.notdef /.notdef /.notdef /.notdef
/.notdef /.notdef /.notdef /.notdef /.notdef
/.notdef /.notdef /space /exclam /quotedbl
/numbersign /dollar /percent /ampersand /quotesingle
/parenleft /parenright /asterisk /plus /comma
/hyphen /period /slash /zero /one
/two /three /four /five /six
/seven /eight /nine /colon /semicolon
/less /equal /greater /question /at
/A /B /C /D /E
/F /G /H /I /J
/K /L /M /N /O
/P /Q /R /S /T
/U /V /W /X /Y
/Z /bracketleft /backslash /bracketright /asciicircum
/underscore /quoteleft /a /b /c
/d /e /f /g /h
/i /j /k /l /m
/n /o /p /q /r
/s /t /u /v /w
/x /y /z /braceleft /bar
/braceright /asciitilde /bullet /Euro /bullet
/quotesinglbase /florin /quotedblbase /ellipsis /dagger
/daggerdbl /circumflex /perthousand /Scaron /guilsinglleft
/OE /bullet /Zcaron /bullet /bullet
/quoteleft /quoteright /quotedblleft /quotedblright /bullet
/endash /emdash /asciitilde /trademark /scaron
/guilsinglright /oe /bullet /zcaron /Ydieresis
/space /exclamdown /cent /sterling /currency
/yen /brokenbar /section /dieresis /copyright
/ordfeminine /guillemotleft /logicalnot /sfthyphen /registered
/macron /degree /plusminus /twosuperior /threesuperior
/acute /mu /paragraph /middot /cedilla
/onesuperior /ordmasculine /guillemotright /onequarter /onehalf
/threequarters /questiondown /Agrave /Aacute /Acircumflex
/Atilde /Adieresis /Aring /AE /Ccedilla
/Egrave /Eacute /Ecircumflex /Edieresis /Igrave
/Iacute /Icircumflex /Idieresis /Eth /Ntilde
/Ograve /Oacute /Ocircumflex /Otilde /Odieresis
/multiply /Oslash /Ugrave /Uacute /Ucircumflex
/Udieresis /Yacute /Thorn /germandbls /agrave
/aacute /acircumflex /atilde /adieresis /aring
/ae /ccedilla /egrave /eacute /ecircumflex
/edieresis /igrave /iacute /icircumflex /idieresis
/eth /ntilde /ograve /oacute /ocircumflex
/otilde /odieresis /divide /oslash /ugrave
/uacute /ucircumflex /udieresis /yacute /thorn
/ydieresis
] def
%%EndResource
%FOPBeginFontReencode
/Courier-Bold findfont
dup length dict begin
  {1 index /FID ne {def} {pop pop} ifelse} forall
  /Encoding WinAnsiEncoding def
  currentdict
end
/Courier-Bold exch definefont pop
/Helvetica findfont
dup length dict begin
  {1 index /FID ne {def} {pop pop} ifelse} forall
  /Encoding WinAnsiEncoding def
  currentdict
end
/Helvetica exch definefont pop
/Courier-BoldOblique findfont
dup length dict begin
  {1 index /FID ne {def} {pop pop} ifelse} forall
  /Encoding WinAnsiEncoding def
  currentdict
end
/Courier-BoldOblique exch definefont pop
/Courier-Oblique findfont
dup length dict begin
  {1 index /FID ne {def} {pop pop} ifelse} forall
  /Encoding WinAnsiEncoding def
  currentdict
end
/Courier-Oblique exch definefont pop
/Times-Roman findfont
dup length dict begin
  {1 index /FID ne {def} {pop pop} ifelse} forall
  /Encoding WinAnsiEncoding def
  currentdict
end
/Times-Roman exch definefont pop
/Helvetica-BoldOblique findfont
dup length dict begin
  {1 index /FID ne {def} {pop pop} ifelse} forall
  /Encoding WinAnsiEncoding def
  currentdict
end
/Helvetica-BoldOblique exch definefont pop
/Helvetica-Bold findfont
dup length dict begin
  {1 index /FID ne {def} {pop pop} ifelse} forall
  /Encoding WinAnsiEncoding def
  currentdict
end
/Helvetica-Bold exch definefont pop
/Helvetica-Oblique findfont
dup length dict begin
  {1 index /FID ne {def} {pop pop} ifelse} forall
  /Encoding WinAnsiEncoding def
  currentdict
end
/Helvetica-Oblique exch definefont pop
/Times-BoldItalic findfont
dup length dict begin
  {1 index /FID ne {def} {pop pop} ifelse} forall
  /Encoding WinAnsiEncoding def
  currentdict
end
/Times-BoldItalic exch definefont pop
/Courier findfont
dup length dict begin
  {1 index /FID ne {def} {pop pop} ifelse} forall
  /Encoding WinAnsiEncoding def
  currentdict
end
/Courier exch definefont pop
/Times-Italic findfont
dup length dict begin
  {1 index /FID ne {def} {pop pop} ifelse} forall
  /Encoding WinAnsiEncoding def
  currentdict
end
/Times-Italic exch definefont pop
/Times-Bold findfont
dup length dict begin
  {1 index /FID ne {def} {pop pop} ifelse} forall
  /Encoding WinAnsiEncoding def
  currentdict
end
/Times-Bold exch definefont pop
%FOPEndFontReencode
%%EndProlog
%%Page: 1 1
%%PageBoundingBox: 0 0 748 539
%%BeginPageSetup
[1 0 0 -1 0 539] CT
%%EndPageSetup
GS
[0.75789 0 0 0.75789 0 0.13684] CT
1 GC
N
0 0 987 711 re
f
GR
GS
[0.75789 0 0 0.75789 0 0.13684] CT
1 GC
N
0 0 987 711 re
f
GR
GS
[0.75789 0 0 0.75789 0 0.13684] CT
1 GC
N
128 633 M
893 633 L
893 53 L
128 53 L
cp
f
GR
GS
[0.75789 0 0 0.75789 0 0.13684] CT
0.149 GC
2 setlinecap
1 LJ
0.66 LW
N
128 633 M
893 633 L
S
GR
GS
[0.75789 0 0 0.75789 0 0.13684] CT
0.149 GC
2 setlinecap
1 LJ
0.66 LW
N
128 53 M
893 53 L
S
GR
GS
[0.75789 0 0 0.75789 0 0.13684] CT
0.149 GC
2 setlinecap
1 LJ
0.66 LW
N
128 633 M
128 625.35 L
S
GR
GS
[0.75789 0 0 0.75789 0 0.13684] CT
0.149 GC
2 setlinecap
1 LJ
0.66 LW
N
204.5 633 M
204.5 625.35 L
S
GR
GS
[0.75789 0 0 0.75789 0 0.13684] CT
0.149 GC
2 setlinecap
1 LJ
0.66 LW
N
281 633 M
281 625.35 L
S
GR
GS
[0.75789 0 0 0.75789 0 0.13684] CT
0.149 GC
2 setlinecap
1 LJ
0.66 LW
N
357.5 633 M
357.5 625.35 L
S
GR
GS
[0.75789 0 0 0.75789 0 0.13684] CT
0.149 GC
2 setlinecap
1 LJ
0.66 LW
N
434 633 M
434 625.35 L
S
GR
GS
[0.75789 0 0 0.75789 0 0.13684] CT
0.149 GC
2 setlinecap
1 LJ
0.66 LW
N
510.5 633 M
510.5 625.35 L
S
GR
GS
[0.75789 0 0 0.75789 0 0.13684] CT
0.149 GC
2 setlinecap
1 LJ
0.66 LW
N
587 633 M
587 625.35 L
S
GR
GS
[0.75789 0 0 0.75789 0 0.13684] CT
0.149 GC
2 setlinecap
1 LJ
0.66 LW
N
663.5 633 M
663.5 625.35 L
S
GR
GS
[0.75789 0 0 0.75789 0 0.13684] CT
0.149 GC
2 setlinecap
1 LJ
0.66 LW
N
740 633 M
740 625.35 L
S
GR
GS
[0.75789 0 0 0.75789 0 0.13684] CT
0.149 GC
2 setlinecap
1 LJ
0.66 LW
N
816.5 633 M
816.5 625.35 L
S
GR
GS
[0.75789 0 0 0.75789 0 0.13684] CT
0.149 GC
2 setlinecap
1 LJ
0.66 LW
N
893 633 M
893 625.35 L
S
GR
GS
[0.75789 0 0 0.75789 0 0.13684] CT
0.149 GC
2 setlinecap
1 LJ
0.66 LW
N
128 53 M
128 60.65 L
S
GR
GS
[0.75789 0 0 0.75789 0 0.13684] CT
0.149 GC
2 setlinecap
1 LJ
0.66 LW
N
204.5 53 M
204.5 60.65 L
S
GR
GS
[0.75789 0 0 0.75789 0 0.13684] CT
0.149 GC
2 setlinecap
1 LJ
0.66 LW
N
281 53 M
281 60.65 L
S
GR
GS
[0.75789 0 0 0.75789 0 0.13684] CT
0.149 GC
2 setlinecap
1 LJ
0.66 LW
N
357.5 53 M
357.5 60.65 L
S
GR
GS
[0.75789 0 0 0.75789 0 0.13684] CT
0.149 GC
2 setlinecap
1 LJ
0.66 LW
N
434 53 M
434 60.65 L
S
GR
GS
[0.75789 0 0 0.75789 0 0.13684] CT
0.149 GC
2 setlinecap
1 LJ
0.66 LW
N
510.5 53 M
510.5 60.65 L
S
GR
GS
[0.75789 0 0 0.75789 0 0.13684] CT
0.149 GC
2 setlinecap
1 LJ
0.66 LW
N
587 53 M
587 60.65 L
S
GR
GS
[0.75789 0 0 0.75789 0 0.13684] CT
0.149 GC
2 setlinecap
1 LJ
0.66 LW
N
663.5 53 M
663.5 60.65 L
S
GR
GS
[0.75789 0 0 0.75789 0 0.13684] CT
0.149 GC
2 setlinecap
1 LJ
0.66 LW
N
740 53 M
740 60.65 L
S
GR
GS
[0.75789 0 0 0.75789 0 0.13684] CT
0.149 GC
2 setlinecap
1 LJ
0.66 LW
N
816.5 53 M
816.5 60.65 L
S
GR
GS
[0.75789 0 0 0.75789 0 0.13684] CT
0.149 GC
2 setlinecap
1 LJ
0.66 LW
N
893 53 M
893 60.65 L
S
GR
GS
[0.75789 0 0 0.75789 97.01053 483.88421] CT
0.149 GC
/Helvetica 13.194 F
GS
[1 0 0 1 0 0] CT
-4.5 13 moveto 
1 -1 scale
(0) t 
GR
GR
GS
[0.75789 0 0 0.75789 154.98948 483.88421] CT
0.149 GC
/Helvetica 13.194 F
GS
[1 0 0 1 0 0] CT
-8.5 13 moveto 
1 -1 scale
(50) t 
GR
GR
GS
[0.75789 0 0 0.75789 212.96842 483.88421] CT
0.149 GC
/Helvetica 13.194 F
GS
[1 0 0 1 0 0] CT
-12.5 13 moveto 
1 -1 scale
(100) t 
GR
GR
GS
[0.75789 0 0 0.75789 270.94737 483.88421] CT
0.149 GC
/Helvetica 13.194 F
GS
[1 0 0 1 0 0] CT
-12.5 13 moveto 
1 -1 scale
(150) t 
GR
GR
GS
[0.75789 0 0 0.75789 328.92632 483.88421] CT
0.149 GC
/Helvetica 13.194 F
GS
[1 0 0 1 0 0] CT
-12.5 13 moveto 
1 -1 scale
(200) t 
GR
GR
GS
[0.75789 0 0 0.75789 386.90527 483.88421] CT
0.149 GC
/Helvetica 13.194 F
GS
[1 0 0 1 0 0] CT
-12.5 13 moveto 
1 -1 scale
(250) t 
GR
GR
GS
[0.75789 0 0 0.75789 444.88422 483.88421] CT
0.149 GC
/Helvetica 13.194 F
GS
[1 0 0 1 0 0] CT
-12.5 13 moveto 
1 -1 scale
(300) t 
GR
GR
GS
[0.75789 0 0 0.75789 502.86316 483.88421] CT
0.149 GC
/Helvetica 13.194 F
GS
[1 0 0 1 0 0] CT
-12.5 13 moveto 
1 -1 scale
(350) t 
GR
GR
GS
[0.75789 0 0 0.75789 560.84211 483.88421] CT
0.149 GC
/Helvetica 13.194 F
GS
[1 0 0 1 0 0] CT
-12.5 13 moveto 
1 -1 scale
(400) t 
GR
GR
GS
[0.75789 0 0 0.75789 618.82106 483.88421] CT
0.149 GC
/Helvetica 13.194 F
GS
[1 0 0 1 0 0] CT
-12.5 13 moveto 
1 -1 scale
(450) t 
GR
GR
GS
[0.75789 0 0 0.75789 676.80001 483.88421] CT
0.149 GC
/Helvetica 13.194 F
GS
[1 0 0 1 0 0] CT
-12.5 13 moveto 
1 -1 scale
(500) t 
GR
GR
GS
[0.75789 0 0 0.75789 386.90555 497.76843] CT
0.149 GC
/Helvetica 14.514 F
GS
[1 0 0 1 0 0] CT
-38.5 14 moveto 
1 -1 scale
(w=omega) t 
GR
GR
GS
[0.75789 0 0 0.75789 0 0.13684] CT
0.149 GC
2 setlinecap
1 LJ
0.66 LW
N
128 633 M
128 53 L
S
GR
GS
[0.75789 0 0 0.75789 0 0.13684] CT
0.149 GC
2 setlinecap
1 LJ
0.66 LW
N
893 633 M
893 53 L
S
GR
GS
[0.75789 0 0 0.75789 0 0.13684] CT
0.149 GC
2 setlinecap
1 LJ
0.66 LW
N
128 633 M
135.65 633 L
S
GR
GS
[0.75789 0 0 0.75789 0 0.13684] CT
0.149 GC
2 setlinecap
1 LJ
0.66 LW
N
128 536.333 M
135.65 536.333 L
S
GR
GS
[0.75789 0 0 0.75789 0 0.13684] CT
0.149 GC
2 setlinecap
1 LJ
0.66 LW
N
128 439.667 M
135.65 439.667 L
S
GR
GS
[0.75789 0 0 0.75789 0 0.13684] CT
0.149 GC
2 setlinecap
1 LJ
0.66 LW
N
128 343 M
135.65 343 L
S
GR
GS
[0.75789 0 0 0.75789 0 0.13684] CT
0.149 GC
2 setlinecap
1 LJ
0.66 LW
N
128 246.333 M
135.65 246.333 L
S
GR
GS
[0.75789 0 0 0.75789 0 0.13684] CT
0.149 GC
2 setlinecap
1 LJ
0.66 LW
N
128 149.667 M
135.65 149.667 L
S
GR
GS
[0.75789 0 0 0.75789 0 0.13684] CT
0.149 GC
2 setlinecap
1 LJ
0.66 LW
N
128 53 M
135.65 53 L
S
GR
GS
[0.75789 0 0 0.75789 0 0.13684] CT
0.149 GC
2 setlinecap
1 LJ
0.66 LW
N
893 633 M
885.35 633 L
S
GR
GS
[0.75789 0 0 0.75789 0 0.13684] CT
0.149 GC
2 setlinecap
1 LJ
0.66 LW
N
893 536.333 M
885.35 536.333 L
S
GR
GS
[0.75789 0 0 0.75789 0 0.13684] CT
0.149 GC
2 setlinecap
1 LJ
0.66 LW
N
893 439.667 M
885.35 439.667 L
S
GR
GS
[0.75789 0 0 0.75789 0 0.13684] CT
0.149 GC
2 setlinecap
1 LJ
0.66 LW
N
893 343 M
885.35 343 L
S
GR
GS
[0.75789 0 0 0.75789 0 0.13684] CT
0.149 GC
2 setlinecap
1 LJ
0.66 LW
N
893 246.333 M
885.35 246.333 L
S
GR
GS
[0.75789 0 0 0.75789 0 0.13684] CT
0.149 GC
2 setlinecap
1 LJ
0.66 LW
N
893 149.667 M
885.35 149.667 L
S
GR
GS
[0.75789 0 0 0.75789 0 0.13684] CT
0.149 GC
2 setlinecap
1 LJ
0.66 LW
N
893 53 M
885.35 53 L
S
GR
GS
[0.75789 0 0 0.75789 93.01053 479.88421] CT
0.149 GC
/Helvetica 13.194 F
GS
[1 0 0 1 0 0] CT
-9 4.5 moveto 
1 -1 scale
(0) t 
GR
GR
GS
[0.75789 0 0 0.75789 93.01053 406.62104] CT
0.149 GC
/Helvetica 13.194 F
GS
[1 0 0 1 0 0] CT
-21 4.5 moveto 
1 -1 scale
(0.2) t 
GR
GR
GS
[0.75789 0 0 0.75789 93.01053 333.35789] CT
0.149 GC
/Helvetica 13.194 F
GS
[1 0 0 1 0 0] CT
-21 4.5 moveto 
1 -1 scale
(0.4) t 
GR
GR
GS
[0.75789 0 0 0.75789 93.01053 260.09474] CT
0.149 GC
/Helvetica 13.194 F
GS
[1 0 0 1 0 0] CT
-21 4.5 moveto 
1 -1 scale
(0.6) t 
GR
GR
GS
[0.75789 0 0 0.75789 93.01053 186.83157] CT
0.149 GC
/Helvetica 13.194 F
GS
[1 0 0 1 0 0] CT
-21 4.5 moveto 
1 -1 scale
(0.8) t 
GR
GR
GS
[0.75789 0 0 0.75789 93.01053 113.56842] CT
0.149 GC
/Helvetica 13.194 F
GS
[1 0 0 1 0 0] CT
-9 4.5 moveto 
1 -1 scale
(1) t 
GR
GR
GS
[0.75789 0 0 0.75789 93.01053 40.30524] CT
0.149 GC
/Helvetica 13.194 F
GS
[1 0 0 1 0 0] CT
-21 4.5 moveto 
1 -1 scale
(1.2) t 
GR
GR
GS
[0 -0.75789 0.75789 0 71.24211 288.89474] CT
0.149 GC
/Helvetica 14.514 F
GS
[1 0 0 1 0 0] CT
0 0 moveto 
1 -1 scale
(error * w) t 
GR
GR
GS
[0 -0.75789 0.75789 0 65.93684 238.11579] CT
0.149 GC
/Helvetica 11.611 F
GS
[1 0 0 1 0 0] CT
0 0 moveto 
1 -1 scale
(2) t 
GR
GR
GS
[0.75789 0 0 0.75789 321.34737 35] CT
/Helvetica-Bold 14.514 F
GS
[1 0 0 1 0 0] CT
0 0 moveto 
1 -1 scale
(Error scaled with w) t 
GR
GR
GS
[0.75789 0 0 0.75789 445.64211 29.69474] CT
/Helvetica-Bold 11.611 F
GS
[1 0 0 1 0 0] CT
0 0 moveto 
1 -1 scale
(2) t 
GR
GR
GS
[0.75789 0 0 0.75789 0 0.13684] CT
0 0.447 0.741 RC
1 LJ
0.66 LW
N
129.53 540.863 M
134.12 360.698 L
138.71 274.803 L
143.3 228.459 L
147.89 202.544 L
152.48 186.845 L
157.07 176.467 L
161.66 170.387 L
166.25 165.204 L
170.84 162.542 L
175.43 159.768 L
180.02 158.166 L
184.61 156.912 L
189.2 155.499 L
193.79 155.196 L
198.38 153.894 L
202.97 153.931 L
207.56 153.018 L
212.15 152.865 L
216.74 152.572 L
221.33 152.005 L
225.92 152.261 L
230.51 151.446 L
235.1 151.88 L
239.69 151.215 L
244.28 151.386 L
248.87 151.206 L
253.46 150.89 L
258.05 151.225 L
262.64 150.556 L
267.23 151.102 L
271.82 150.473 L
276.41 150.797 L
281 150.587 L
285.59 150.419 L
290.18 150.728 L
294.77 150.144 L
299.36 150.725 L
303.95 150.091 L
308.54 150.517 L
313.13 150.239 L
317.72 150.194 L
322.31 150.437 L
326.9 149.931 L
331.49 150.509 L
336.08 149.868 L
340.67 150.37 L
345.26 150.015 L
349.85 150.082 L
354.44 150.242 L
359.03 149.816 L
363.62 150.369 L
368.21 149.728 L
372.8 150.286 L
377.39 149.856 L
381.98 150.03 L
386.57 150.095 L
391.16 149.758 L
395.75 150.265 L
400.34 149.638 L
404.93 150.234 L
409.52 149.738 L
414.11 150.011 L
418.7 149.976 L
423.29 149.734 L
427.88 150.18 L
432.47 149.582 L
437.06 150.198 L
441.65 149.646 L
446.24 150.01 L
450.83 149.875 L
455.42 149.734 L
460.01 150.104 L
464.6 149.55 L
469.19 150.169 L
473.78 149.576 L
478.37 150.019 L
482.96 149.787 L
487.55 149.749 L
492.14 150.033 L
496.73 149.538 L
501.32 150.141 L
505.91 149.522 L
510.5 150.033 L
515.09 149.708 L
519.68 149.775 L
524.27 149.964 L
528.86 149.54 L
533.45 150.112 L
538.04 149.483 L
542.63 150.046 L
547.22 149.638 L
551.81 149.808 L
556.4 149.896 L
560.99 149.556 L
565.58 150.078 L
570.17 149.457 L
574.76 150.058 L
579.35 149.576 L
583.94 149.845 L
588.53 149.829 L
593.12 149.581 L
597.71 150.04 L
602.3 149.444 L
606.89 150.065 L
611.48 149.523 L
616.07 149.882 L
620.66 149.763 L
625.25 149.615 L
629.84 149.998 L
634.43 149.442 L
639.02 150.066 L
643.61 149.479 L
648.2 149.919 L
652.79 149.699 L
657.38 149.655 L
661.97 149.95 L
666.56 149.451 L
671.15 150.06 L
675.74 149.445 L
680.33 149.952 L
684.92 149.638 L
689.51 149.698 L
694.1 149.898 L
698.69 149.47 L
703.28 150.047 L
707.87 149.42 L
712.46 149.981 L
717.05 149.581 L
721.64 149.745 L
726.23 149.843 L
730.82 149.497 L
735.41 150.026 L
740 149.405 L
744.59 150.004 L
749.18 149.53 L
753.77 149.792 L
758.36 149.786 L
762.95 149.532 L
767.54 149.998 L
772.13 149.4 L
776.72 150.02 L
781.31 149.484 L
785.9 149.838 L
790.49 149.727 L
795.08 149.572 L
799.67 149.962 L
804.26 149.404 L
808.85 150.029 L
813.44 149.446 L
818.03 149.881 L
822.62 149.669 L
827.21 149.618 L
831.8 149.921 L
836.39 149.418 L
840.98 150.029 L
845.57 149.416 L
850.16 149.92 L
854.75 149.613 L
859.34 149.667 L
863.93 149.874 L
868.52 149.441 L
873.11 150.021 L
877.7 149.395 L
882.29 149.954 L
886.88 149.56 L
891.47 149.717 L
S
GR
GS
[0.75789 0 0 0.75789 0 0.13684] CT
0.851 0.325 0.098 RC
1 LJ
0.66 LW
N
129.53 577.8 M
134.12 410.079 L
138.71 366.321 L
143.3 301.033 L
147.89 291.969 L
152.48 280.447 L
157.07 255.654 L
161.66 276.866 L
166.25 241.777 L
170.84 268.166 L
175.43 244.572 L
180.02 252.502 L
184.61 255.564 L
189.2 237.801 L
193.79 263.809 L
198.38 232.093 L
202.97 261.512 L
207.56 237.771 L
212.15 249.56 L
216.74 250.306 L
221.33 236.157 L
225.92 260.58 L
230.51 229.989 L
235.1 260.735 L
239.69 234.68 L
244.28 250.427 L
248.87 246.996 L
253.46 237.017 L
258.05 258.519 L
262.64 229.484 L
267.23 260.852 L
271.82 232.513 L
276.41 252.159 L
281 244.093 L
285.59 238.74 L
290.18 256.527 L
294.77 229.736 L
299.36 260.973 L
303.95 230.86 L
308.54 254.084 L
313.13 241.355 L
317.72 240.899 L
322.31 254.373 L
326.9 230.528 L
331.49 260.829 L
336.08 229.642 L
340.67 255.94 L
345.26 238.763 L
349.85 243.302 L
354.44 252.023 L
359.03 231.767 L
363.62 260.323 L
368.21 228.849 L
372.8 257.585 L
377.39 236.353 L
381.98 245.828 L
386.57 249.504 L
391.16 233.394 L
395.75 259.419 L
400.34 228.487 L
404.93 258.925 L
409.52 234.175 L
414.11 248.379 L
418.7 246.868 L
423.29 235.352 L
427.88 258.12 L
432.47 228.559 L
437.06 259.893 L
441.65 232.281 L
446.24 250.864 L
450.83 244.18 L
455.42 237.583 L
460.01 256.451 L
464.6 229.062 L
469.19 260.444 L
473.78 230.718 L
478.37 253.203 L
482.96 241.511 L
487.55 240.024 L
492.14 254.454 L
496.73 229.981 L
501.32 260.551 L
505.91 229.523 L
510.5 255.318 L
515.09 238.932 L
519.68 242.607 L
524.27 252.182 L
528.86 231.293 L
533.45 260.203 L
538.04 228.728 L
542.63 257.141 L
547.22 236.509 L
551.81 245.259 L
556.4 249.701 L
560.99 232.966 L
565.58 259.406 L
570.17 228.354 L
574.76 258.612 L
579.35 234.307 L
583.94 247.906 L
588.53 247.081 L
593.12 234.957 L
597.71 258.181 L
602.3 228.409 L
606.89 259.683 L
611.48 232.383 L
616.07 250.47 L
620.66 244.394 L
625.25 237.215 L
629.84 256.564 L
634.43 228.893 L
639.02 260.316 L
643.61 230.787 L
648.2 252.876 L
652.79 241.716 L
657.38 239.68 L
661.97 254.603 L
666.56 229.794 L
671.15 260.491 L
675.74 229.56 L
680.33 255.051 L
684.92 239.12 L
689.51 242.286 L
694.1 252.356 L
698.69 231.092 L
703.28 260.2 L
707.87 228.732 L
712.46 256.93 L
717.05 236.676 L
721.64 244.962 L
726.23 249.888 L
730.82 232.752 L
735.41 259.451 L
740 228.325 L
744.59 258.453 L
749.18 234.45 L
753.77 247.634 L
758.36 247.273 L
762.95 234.734 L
767.54 258.265 L
772.13 228.35 L
776.72 259.572 L
781.31 232.499 L
785.9 250.225 L
790.49 244.585 L
795.08 236.986 L
799.67 256.68 L
804.26 228.806 L
808.85 260.251 L
813.44 230.874 L
818.03 252.66 L
822.62 241.9 L
827.21 239.449 L
831.8 254.743 L
836.39 229.682 L
840.98 260.469 L
845.57 229.616 L
850.16 254.867 L
854.75 239.292 L
859.34 242.058 L
863.93 252.514 L
868.52 230.957 L
873.11 260.217 L
877.7 228.758 L
882.29 256.779 L
886.88 236.832 L
891.47 244.741 L
S
GR
GS
[0.75789 0 0 0.75789 0 0.13684] CT
0.929 0.694 0.125 RC
1 LJ
0.66 LW
N
129.53 560.123 M
134.12 417.327 L
138.71 371.278 L
143.3 318.754 L
147.89 305.388 L
152.48 295.194 L
157.07 275.745 L
161.66 288.342 L
166.25 264.322 L
170.84 280.499 L
175.43 265.024 L
180.02 269.287 L
184.61 271.414 L
189.2 259.225 L
193.79 276.113 L
198.38 255.289 L
202.97 274.179 L
207.56 258.899 L
212.15 266.203 L
216.74 266.907 L
221.33 257.377 L
225.92 273.325 L
230.51 253.331 L
235.1 273.222 L
239.69 256.423 L
244.28 266.453 L
248.87 264.418 L
253.46 257.697 L
258.05 271.758 L
262.64 252.787 L
267.23 273.132 L
271.82 254.816 L
276.41 267.453 L
281 262.379 L
285.59 258.719 L
290.18 270.365 L
294.77 252.851 L
299.36 273.134 L
303.95 253.633 L
308.54 268.639 L
313.13 260.514 L
317.72 260.074 L
322.31 268.918 L
326.9 253.314 L
331.49 273.003 L
336.08 252.774 L
340.67 269.806 L
345.26 258.772 L
349.85 261.609 L
354.44 267.365 L
359.03 254.093 L
363.62 272.655 L
368.21 252.214 L
372.8 270.848 L
377.39 257.162 L
381.98 263.233 L
386.57 265.711 L
391.16 255.137 L
395.75 272.061 L
400.34 251.949 L
404.93 271.699 L
409.52 255.711 L
414.11 264.877 L
418.7 263.985 L
423.29 256.404 L
427.88 271.218 L
432.47 251.977 L
437.06 272.316 L
441.65 254.45 L
446.24 266.479 L
450.83 262.227 L
455.42 257.852 L
460.01 270.139 L
464.6 252.292 L
469.19 272.667 L
473.78 253.408 L
478.37 267.985 L
482.96 260.479 L
487.55 259.438 L
492.14 268.848 L
496.73 252.885 L
501.32 272.735 L
505.91 252.611 L
510.5 269.347 L
515.09 258.787 L
519.68 261.115 L
524.27 267.379 L
528.86 253.737 L
533.45 272.512 L
538.04 252.077 L
542.63 270.52 L
547.22 257.196 L
551.81 262.836 L
556.4 265.772 L
560.99 254.828 L
565.58 272.001 L
570.17 251.822 L
574.76 271.466 L
579.35 255.747 L
583.94 264.55 L
588.53 264.072 L
593.12 256.127 L
597.71 271.215 L
602.3 251.85 L
606.89 272.154 L
611.48 254.48 L
616.07 266.209 L
620.66 262.324 L
625.25 257.599 L
629.84 270.177 L
634.43 252.162 L
639.02 272.562 L
643.61 253.426 L
648.2 267.763 L
652.79 260.579 L
657.38 259.204 L
661.97 268.915 L
666.56 252.749 L
671.15 272.676 L
675.74 252.613 L
680.33 269.165 L
684.92 258.884 L
689.51 260.9 L
694.1 267.466 L
698.69 253.596 L
703.28 272.492 L
707.87 252.064 L
712.46 270.375 L
717.05 257.284 L
721.64 262.638 L
726.23 265.872 L
730.82 254.681 L
735.41 272.013 L
740 251.791 L
744.59 271.355 L
749.18 255.824 L
753.77 264.371 L
758.36 264.178 L
762.95 255.976 L
767.54 271.254 L
772.13 251.803 L
776.72 272.075 L
781.31 254.542 L
785.9 266.048 L
790.49 262.433 L
795.08 257.447 L
799.67 270.238 L
804.26 252.099 L
808.85 272.513 L
813.44 253.472 L
818.03 267.621 L
822.62 260.686 L
827.21 259.053 L
831.8 268.993 L
836.39 252.671 L
840.98 272.654 L
845.57 252.642 L
850.16 269.044 L
854.75 258.985 L
859.34 260.751 L
863.93 267.557 L
868.52 253.505 L
873.11 272.495 L
877.7 252.075 L
882.29 270.275 L
886.88 257.376 L
891.47 262.494 L
S
GR
GS
[0.75789 0 0 0.75789 0 0.13684] CT
0.494 0.184 0.557 RC
1 LJ
0.66 LW
N
129.53 625.901 M
134.12 546.755 L
138.71 480.097 L
143.3 477.424 L
147.89 445.45 L
152.48 440.017 L
157.07 443.848 L
161.66 420.415 L
166.25 443.276 L
170.84 416.186 L
175.43 434.346 L
180.02 423.047 L
184.61 421.094 L
189.2 433.013 L
193.79 411.722 L
198.38 437.067 L
202.97 411.316 L
207.56 431.221 L
212.15 419.384 L
216.74 419.767 L
221.33 430.212 L
225.92 410.721 L
230.51 435.752 L
235.1 409.683 L
239.69 431.511 L
244.28 417.086 L
248.87 420.726 L
253.46 428.123 L
258.05 411.112 L
262.64 435.019 L
267.23 408.794 L
271.82 432.432 L
276.41 415.093 L
281 422.349 L
285.59 426.058 L
290.18 412.1 L
294.77 434.212 L
299.36 408.337 L
303.95 433.394 L
308.54 413.296 L
313.13 424.225 L
317.72 423.926 L
322.31 413.473 L
326.9 433.168 L
331.49 408.25 L
336.08 434.186 L
340.67 411.708 L
345.26 426.174 L
349.85 421.746 L
354.44 415.135 L
359.03 431.848 L
363.62 408.517 L
368.21 434.702 L
372.8 410.366 L
377.39 428.085 L
381.98 419.563 L
386.57 417.019 L
391.16 430.263 L
395.75 409.126 L
400.34 434.887 L
404.93 409.302 L
409.52 429.871 L
414.11 417.433 L
418.7 419.063 L
423.29 428.444 L
427.88 410.063 L
432.47 434.711 L
437.06 408.546 L
441.65 431.461 L
446.24 415.411 L
450.83 421.206 L
455.42 426.439 L
460.01 411.305 L
464.6 434.165 L
469.19 408.118 L
473.78 432.792 L
478.37 413.549 L
482.96 423.384 L
487.55 424.303 L
492.14 412.823 L
496.73 433.26 L
501.32 408.031 L
505.91 433.814 L
510.5 411.896 L
515.09 425.533 L
519.68 422.095 L
524.27 414.58 L
528.86 432.018 L
533.45 408.289 L
538.04 434.487 L
542.63 410.493 L
547.22 427.588 L
551.81 419.875 L
556.4 416.533 L
560.99 430.476 L
565.58 408.889 L
570.17 434.784 L
574.76 409.377 L
579.35 429.487 L
583.94 417.705 L
588.53 418.633 L
593.12 428.679 L
597.71 409.816 L
602.3 434.692 L
606.89 408.574 L
611.48 431.167 L
616.07 415.643 L
620.66 420.823 L
625.25 426.682 L
629.84 411.051 L
634.43 434.21 L
639.02 408.104 L
643.61 432.576 L
648.2 413.741 L
652.79 423.045 L
657.38 424.544 L
661.97 412.566 L
666.56 433.353 L
671.15 407.981 L
675.74 433.664 L
680.33 412.049 L
684.92 425.236 L
689.51 422.327 L
694.1 414.323 L
698.69 432.147 L
703.28 408.208 L
707.87 434.396 L
712.46 410.608 L
717.05 427.331 L
721.64 420.093 L
726.23 416.279 L
730.82 430.631 L
735.41 408.779 L
740 434.744 L
744.59 409.455 L
749.18 429.27 L
753.77 417.904 L
758.36 418.385 L
762.95 428.852 L
767.54 409.684 L
772.13 434.697 L
776.72 408.618 L
781.31 430.99 L
785.9 415.82 L
790.49 420.586 L
795.08 426.865 L
799.67 410.9 L
804.26 434.255 L
808.85 408.116 L
813.44 432.438 L
818.03 413.894 L
822.62 422.821 L
827.21 424.73 L
831.8 412.399 L
836.39 433.431 L
840.98 407.962 L
845.57 433.565 L
850.16 412.176 L
854.75 425.029 L
859.34 422.511 L
863.93 414.145 L
868.52 432.252 L
873.11 408.161 L
877.7 434.334 L
882.29 410.709 L
886.88 427.145 L
891.47 420.27 L
S
GR
GS
[0.75789 0 0 0.75789 0 0.13684] CT
0.467 0.675 0.188 RC
1 LJ
0.66 LW
N
129.53 625.013 M
134.12 571.765 L
138.71 532.799 L
143.3 511.131 L
147.89 494.266 L
152.48 488.327 L
157.07 481.553 L
161.66 478.325 L
166.25 476.651 L
170.84 473.641 L
175.43 473.992 L
180.02 471.701 L
184.61 471.96 L
189.2 471.117 L
193.79 470.383 L
198.38 470.903 L
202.97 469.466 L
207.56 470.477 L
212.15 469.254 L
216.74 469.744 L
221.33 469.479 L
225.92 468.982 L
230.51 469.703 L
235.1 468.543 L
239.69 469.591 L
244.28 468.579 L
248.87 469.117 L
253.46 468.933 L
258.05 468.542 L
262.64 469.257 L
267.23 468.206 L
271.82 469.254 L
276.41 468.281 L
281 468.883 L
285.59 468.658 L
290.18 468.374 L
294.77 469.027 L
299.36 468.052 L
303.95 469.095 L
308.54 468.112 L
313.13 468.793 L
317.72 468.481 L
322.31 468.315 L
326.9 468.878 L
331.49 467.979 L
336.08 469.007 L
340.67 468 L
345.26 468.765 L
349.85 468.345 L
354.44 468.311 L
359.03 468.762 L
363.62 467.95 L
368.21 468.948 L
372.8 467.921 L
377.39 468.766 L
381.98 468.232 L
386.57 468.336 L
391.16 468.66 L
395.75 467.95 L
400.34 468.9 L
404.93 467.865 L
409.52 468.781 L
414.11 468.133 L
418.7 468.38 L
423.29 468.564 L
427.88 467.971 L
432.47 468.854 L
437.06 467.829 L
441.65 468.799 L
446.24 468.046 L
450.83 468.435 L
455.42 468.47 L
460.01 468.008 L
464.6 468.804 L
469.19 467.809 L
473.78 468.816 L
478.37 467.97 L
482.96 468.494 L
487.55 468.377 L
492.14 468.059 L
496.73 468.748 L
501.32 467.806 L
505.91 468.826 L
510.5 467.905 L
515.09 468.555 L
519.68 468.285 L
524.27 468.12 L
528.86 468.685 L
533.45 467.817 L
538.04 468.828 L
542.63 467.851 L
547.22 468.614 L
551.81 468.196 L
556.4 468.189 L
560.99 468.615 L
565.58 467.843 L
570.17 468.82 L
574.76 467.81 L
579.35 468.669 L
583.94 468.111 L
588.53 468.263 L
593.12 468.539 L
597.71 467.882 L
602.3 468.801 L
606.89 467.782 L
611.48 468.715 L
616.07 468.031 L
620.66 468.34 L
625.25 468.457 L
629.84 467.932 L
634.43 468.77 L
639.02 467.768 L
643.61 468.753 L
648.2 467.958 L
652.79 468.418 L
657.38 468.372 L
661.97 467.993 L
666.56 468.728 L
671.15 467.767 L
675.74 468.78 L
680.33 467.894 L
684.92 468.492 L
689.51 468.285 L
694.1 468.062 L
698.69 468.674 L
703.28 467.781 L
707.87 468.795 L
712.46 467.84 L
717.05 468.563 L
721.64 468.198 L
726.23 468.138 L
730.82 468.611 L
735.41 467.809 L
740 468.796 L
744.59 467.798 L
749.18 468.627 L
753.77 468.114 L
758.36 468.218 L
762.95 468.539 L
767.54 467.849 L
772.13 468.785 L
776.72 467.77 L
781.31 468.682 L
785.9 468.033 L
790.49 468.3 L
795.08 468.461 L
799.67 467.901 L
804.26 468.76 L
808.85 467.754 L
813.44 468.726 L
818.03 467.96 L
822.62 468.382 L
827.21 468.378 L
831.8 467.963 L
836.39 468.723 L
840.98 467.753 L
845.57 468.759 L
850.16 467.895 L
854.75 468.462 L
859.34 468.292 L
863.93 468.033 L
868.52 468.674 L
873.11 467.766 L
877.7 468.779 L
882.29 467.84 L
886.88 468.536 L
891.47 468.205 L
S
GR
GS
[0.75789 0 0 0.75789 0 0.13684] CT
1 GC
N
691 617 M
691 536 L
882 536 L
882 617 L
cp
f
GR
GS
[0.75789 0 0 0.75789 559.08772 413.56842] CT
/Helvetica 11.875 F
GS
[1 0 0 1 0 0] CT
0 4.5 moveto 
1 -1 scale
(1-term asymptotic) t 
GR
GR
GS
[0.75789 0 0 0.75789 0 0.13684] CT
0 0.447 0.741 RC
1 LJ
0.66 LW
N
695.009 545.5 M
734.679 545.5 L
S
GR
GS
[0.75789 0 0 0.75789 559.08772 425.31579] CT
/Helvetica 11.875 F
GS
[1 0 0 1 0 0] CT
0 4.5 moveto 
1 -1 scale
(polynomial degree 1) t 
GR
GR
GS
[0.75789 0 0 0.75789 0 0.13684] CT
0.851 0.325 0.098 RC
1 LJ
0.66 LW
N
695.009 561 M
734.679 561 L
S
GR
GS
[0.75789 0 0 0.75789 559.08772 437.06316] CT
/Helvetica 11.875 F
GS
[1 0 0 1 0 0] CT
0 4.5 moveto 
1 -1 scale
(trigonometric degree 1) t 
GR
GR
GS
[0.75789 0 0 0.75789 0 0.13684] CT
0.929 0.694 0.125 RC
1 LJ
0.66 LW
N
695.009 576.5 M
734.679 576.5 L
S
GR
GS
[0.75789 0 0 0.75789 559.08772 448.81053] CT
/Helvetica 11.875 F
GS
[1 0 0 1 0 0] CT
0 4.5 moveto 
1 -1 scale
(polynomial degree 2) t 
GR
GR
GS
[0.75789 0 0 0.75789 0 0.13684] CT
0.494 0.184 0.557 RC
1 LJ
0.66 LW
N
695.009 592 M
734.679 592 L
S
GR
GS
[0.75789 0 0 0.75789 559.08772 460.55789] CT
/Helvetica 11.875 F
GS
[1 0 0 1 0 0] CT
0 4.5 moveto 
1 -1 scale
(trigonometric degree 2) t 
GR
GR
GS
[0.75789 0 0 0.75789 0 0.13684] CT
0.467 0.675 0.188 RC
1 LJ
0.66 LW
N
695.009 607.5 M
734.679 607.5 L
S
GR
GS
[0.75789 0 0 0.75789 0 0.13684] CT
0.149 GC
10.0 ML
0.66 LW
N
691 617 M
691 536 L
882 536 L
882 617 L
cp
S
GR
%%Trailer
%%Pages: 1
%%EOF
